<?xml version="1.0" encoding="UTF-8" standalone="no"?>
<!DOCTYPE svg PUBLIC "-//W3C//DTD SVG 1.1//EN" "http://www.w3.org/Graphics/SVG/1.1/DTD/svg11.dtd" >
<svg xmlns="http://www.w3.org/2000/svg"
><metadata
></metadata
><defs
><font horiz-adv-x="550"
><font-face font-family="FaricyNew-Regular" units-per-em="1000" ascent="762" descent="-238"
></font-face
><missing-glyph horiz-adv-x="500" d="M61 0V693H441V0H61ZM121 58H381V635H121V58Z"
></missing-glyph
><glyph unicode=" " horiz-adv-x="243" d=""
></glyph
><glyph unicode="!" horiz-adv-x="280" d="M98 200V693h85V200H98ZM80 23t0 24T98 88t42 17q25 0 42.5 -16.5T200 47Q200 23 182.5 5.5T140 -12T97.5 5.5Z"
></glyph
><glyph unicode="&quot;" horiz-adv-x="378" d="M231 475L216 728h81L281 475H231ZM95 475L80 728h81L145 475H95Z"
></glyph
><glyph unicode="#" horiz-adv-x="609" d="M123 0l15 167H67v78h78l17 194H92v79h77l16 167h79L248 518H391l16 167h78L470 518h70V439H463L446 245h71V167H439L424 0H345l15 167H217L202 0H123ZM224 245H367l17 194H241L224 245Z"
></glyph
><glyph unicode="$" horiz-adv-x="520" d="M47 38l25 75Q169 67 244 67q61 0 98.5 30.5T380 177q0 37 -23.5 64T298 282t-76.5 32.5T145 353T86.5 411T63 502q0 71 44 119.5T226 682V797h75V685q66 -7 139 -38L415 573q-79 33 -144 33q-56 0 -86.5 -28T154 502q0 -35 23.5 -61.5t58.5 -41t76.5 -34t76.5 -40T447.5 267T471 177Q471 104 422.5 54.5T296 -8V-124H221V-12Q132 -6 47 38Z"
></glyph
><glyph unicode="%" horiz-adv-x="932" d="M306 325t-78 0T99.5 379.5T49 511T99.5 642.5T228 697T356.5 642.5T407 511T356.5 379.5ZM293 0L566 684h74L367 0H293ZM228 389q47 0 77 35.5T335 511t-30 86.5T228 633T151 597.5T121 511t29.5 -86.5T228 389ZM532 96t0 77t50.5 131.5T711 359T839.5 304.5T890 173T839.5 41.5T711 -13T582.5 41.5ZM604 224t0 -51T633.5 86.5T711 51q47 0 77 35.5T818 173t-30 86.5T711 295T634 259.5Z"
></glyph
><glyph unicode="&amp;" horiz-adv-x="634" d="M64 168q0 68 35 116t97 89q-44 90 -44 160q0 79 46.5 126T319 706q71 0 112 -43.5T472 557q0 -23 -6 -44.5t-21 -41t-27 -33T380 406T342 379T299 351Q350 262 447 160q44 54 67 117l70 -30Q548 168 501 109Q540 73 581 40L525 -12Q494 10 446 53Q368 -13 274 -13Q173 -13 118.5 40T64 168ZM266 416q40 25 62 41t41 42.5T388 555q0 36 -17.5 57T319 633q-40 0 -61 -25.5T237 536q0 -52 29 -120ZM153 179q0 -56 33.5 -85T275 65q60 0 115 43Q295 208 234 306Q153 246 153 179Z"
></glyph
><glyph unicode="&#39;" horiz-adv-x="245" d="M97 475L82 728h81L148 475H97Z"
></glyph
><glyph unicode="(" horiz-adv-x="397" d="M109 42t0 259T277 793h82Q191 546 191 301T359 -191H277Q109 42 109 301Z"
></glyph
><glyph unicode=")" horiz-adv-x="397" d="M38 -191Q206 56 206 301T38 793h82Q288 560 288 301T120 -191H38Z"
></glyph
><glyph unicode="*" horiz-adv-x="465" d="M163 384L95 434l83 99L51 565l27 82L199 597l-9 131h85L266 597l121 50l27 -82L286 533l84 -99L302 384L232 495L163 384Z"
></glyph
><glyph unicode="+" horiz-adv-x="616" d="M81 215v82H267V483h82V297H535V215H349V29H267V215H81Z"
></glyph
><glyph unicode="," horiz-adv-x="236" d="M97 107L183 92L107 -166l-56 10L97 107Z"
></glyph
><glyph unicode="-" horiz-adv-x="450" d="M74 220v76H376V220H74Z"
></glyph
><glyph unicode="." horiz-adv-x="261" d="M71 48q0 24 17.5 41.5T131 107q24 0 41.5 -17.5T190 48Q190 23 172.5 5.5T131 -12Q106 -12 88.5 5.5T71 48Z"
></glyph
><glyph unicode="/" horiz-adv-x="426" d="M53 -97L297 730h76L129 -97H53Z"
></glyph
><glyph unicode="0" horiz-adv-x="562" d="M390 -13t-109 0T109.5 78.5T47 346t62.5 268T281 706T452.5 614T515 346T452.5 78.5ZM134 64t147 0T428 346q0 283 -147 283T134 346Q134 64 281 64Z"
></glyph
><glyph unicode="1" horiz-adv-x="451" d="M71 0V77H211V600L81 542L47 616l178 77h71V77H420V0H71Z"
></glyph
><glyph unicode="2" horiz-adv-x="525" d="M48 0V69q86 76 138 127t96.5 105.5t63.5 101T365 497q0 56 -35.5 94T234 629Q164 629 90 591L59 659q85 47 176 47q93 0 155 -54.5T452 500q0 -54 -22 -110.5T364.5 277T279 177T177 77H455V0H48Z"
></glyph
><glyph unicode="3" horiz-adv-x="483" d="M25 23L50 96Q131 64 194 64q69 0 108.5 37.5T342 197q0 60 -46.5 95.5T178 328H136v75h46q54 0 94.5 32.5T317 517q0 48 -34 80t-88 32Q129 629 59 593L26 662q81 44 169 44q95 0 152 -50T404 517q0 -43 -27 -84T301 368q67 -22 97.5 -68.5T429 197Q429 107 366 47T193 -13Q114 -13 25 23Z"
></glyph
><glyph unicode="4" horiz-adv-x="557" d="M50 162l-9 67L313 693H426V239h90V162H426V0H341V162H50ZM135 239H341V597L135 239Z"
></glyph
><glyph unicode="5" horiz-adv-x="533" d="M35 37l26 71Q158 64 227 64q76 0 120.5 45T392 229q0 59 -36.5 101T237 372Q167 372 81 339l23 354H448V616H181L168 435q42 13 80 13q115 0 173 -63.5T479 231Q479 122 410 54.5T228 -13Q133 -13 35 37Z"
></glyph
><glyph unicode="6" horiz-adv-x="565" d="M47 233q0 55 20 100L224 693h93L209 461q35 16 74 16q100 0 167.5 -71.5T518 233Q518 130 451 58.5T283 -13Q181 -13 114 58.5T47 233ZM134 233q0 -70 41.5 -119.5T283 64t107 49.5T431 233q0 69 -41 117T283 398T175.5 350T134 233Z"
></glyph
><glyph unicode="7" horiz-adv-x="497" d="M117 0L379 616H25v77H475V633L212 0H117Z"
></glyph
><glyph unicode="8" horiz-adv-x="552" d="M50 180q0 65 36.5 105T188 356q-56 29 -87 69T70 529q0 85 62.5 131T275 706q81 0 144 -46T482 529q0 -61 -32 -99T362 363q66 -33 103 -74T502 180Q502 91 435 39T275 -13q-92 0 -158.5 52T50 180ZM281 400q56 27 85 55.5T395 529q0 41 -33 70.5T275 629T189 600T157 529q0 -45 32 -73.5T281 400ZM137 179q0 -50 40.5 -82T275 65t98.5 32T415 179q0 28 -11 49.5t-35 39T325 295t-56 25Q204 292 170.5 261.5T137 179Z"
></glyph
><glyph unicode="9" horiz-adv-x="565" d="M248 0L355 232Q323 215 282 215q-100 0 -167.5 72T47 461q0 101 67.5 173T282 706T450 634T518 461q0 -56 -17 -93L341 0H248ZM217 294t65 0t107 48.5T431 461q0 69 -42 118.5T282 629T175.5 579.5T134 461q0 -70 41.5 -118.5Z"
></glyph
><glyph unicode=":" horiz-adv-x="269" d="M135 335q-25 0 -42.5 17.5T75 395q0 24 17.5 41.5T135 454q24 0 41.5 -17.5T194 395q0 -25 -17.5 -42.5T135 335ZM75 48q0 25 17.5 42T135 107q24 0 41.5 -17T194 48Q194 24 176.5 6T135 -12Q110 -12 92.5 6T75 48Z"
></glyph
><glyph unicode=";" horiz-adv-x="272" d="M137 335q-25 0 -42.5 17.5T77 395q0 24 17.5 41.5T137 454q24 0 42 -17.5T197 395q0 -25 -18 -42.5T137 335ZM95 107L181 92L105 -166l-56 10L95 107Z"
></glyph
><glyph unicode="&lt;" horiz-adv-x="569" d="M101 258L415 522l53 -63L228 258L468 56L415 -6L101 258Z"
></glyph
><glyph unicode="=" horiz-adv-x="616" d="M81 326v82H535V326H81ZM81 106v82H535V106H81Z"
></glyph
><glyph unicode="&gt;" horiz-adv-x="569" d="M101 57L340 258L101 460l53 62L468 258L154 -6L101 57Z"
></glyph
><glyph unicode="?" horiz-adv-x="505" d="M202 202q0 51 15 94.5t37 73t43.5 55T334 477t15 54q0 41 -27 67t-79 26q-61 0 -130 -44L76 651q90 55 169 55q90 0 140 -51.5T435 540q0 -38 -15 -72T383 407T339 352T302 285.5T287 202H202ZM185 47q0 25 17.5 41.5T245 105T288 88.5T306 47Q306 23 287.5 5.5T245 -12q-25 0 -42.5 17.5T185 47Z"
></glyph
><glyph unicode="@" horiz-adv-x="966" d="M51 233q0 200 122 321T490 675q192 0 308 -122T914 237Q914 130 869 65T738 0Q646 0 625 87Q571 0 468 0Q375 0 315.5 69.5T256 237t60 167.5T468 474q90 0 146 -71v58l75 -13V137q0 -76 58 -76q45 0 72.5 43T847 235q0 177 -99 277.5T490 613Q327 613 223 509T119 233Q119 63 219 -35t262 -98q91 0 170 34l19 -59q-92 -37 -189 -37q-195 0 -312.5 116T51 233ZM334 310t0 -73T373.5 117T474 70q60 0 102.5 46.5T619 237q0 75 -43 121.5T474 405q-60 0 -100 -47.5Z"
></glyph
><glyph unicode="A" horiz-adv-x="626" d="M28 0L259 693H367L598 0H509L440 208H186L117 0H28ZM211 286H415L348 486q-12 34 -35 121Q292 526 278 486L211 286Z"
></glyph
><glyph unicode="B" horiz-adv-x="571" d="M80 0V693H268q110 0 166.5 -51T491 510q0 -98 -90 -142q62 -19 96 -63T531 200Q531 114 466.5 57T295 0H80ZM167 398H268q65 0 98.5 29T400 507q0 49 -35 77.5T263 613H167V398ZM167 80H284q78 0 117 33t39 89q0 55 -38 89.5T283 326H167V80Z"
></glyph
><glyph unicode="C" horiz-adv-x="646" d="M51 346q0 100 40 180.5t121 130T402 706q99 0 194 -35L575 596q-87 29 -173 29Q274 625 208 545.5T142 346q0 -119 66 -198.5T402 68q79 0 172 31L596 21Q504 -13 402 -13Q239 -13 145 90T51 346Z"
></glyph
><glyph unicode="D" horiz-adv-x="691" d="M80 0V693H314q107 0 182.5 -48.5T606 519T640 345Q640 194 556.5 97T314 0H80ZM167 80H303q67 0 116.5 21.5t77 60t40 84T549 345T536.5 445t-40 85t-77 61T303 613H167V80Z"
></glyph
><glyph unicode="E" horiz-adv-x="508" d="M80 0V693H452V613H167V391H430L418 313H167V80H459V0H80Z"
></glyph
><glyph unicode="F" horiz-adv-x="477" d="M80 0V693H438V613H167V390H416L404 312H167V0H80Z"
></glyph
><glyph unicode="G" horiz-adv-x="738" d="M51 345q0 154 99.5 257.5T420 706q112 0 217 -41L612 591q-96 34 -192 34Q286 625 214 544T142 345q0 -115 72 -196.5T406 67q88 0 182 40V326l85 24V59Q549 -13 406 -13Q251 -13 151 91T51 345Z"
></glyph
><glyph unicode="H" horiz-adv-x="655" d="M80 0V693h87V393H488V693h87V0H488V313H167V0H80Z"
></glyph
><glyph unicode="I" horiz-adv-x="247" d="M80 0V693h87V0H80Z"
></glyph
><glyph unicode="J" horiz-adv-x="480" d="M28 26l27 76Q127 67 189 67q129 0 129 162V693h88V217Q406 106 346.5 46.5T189 -13Q108 -13 28 26Z"
></glyph
><glyph unicode="K" horiz-adv-x="602" d="M80 0V693h87V310L447 693H549L327 390L574 0H469L271 318L167 178V0H80Z"
></glyph
><glyph unicode="L" horiz-adv-x="488" d="M80 0V693l87 12V80H450V0H80Z"
></glyph
><glyph unicode="M" horiz-adv-x="850" d="M38 0l99 693H241L391 211Q406 161 424 86q31 117 34 125L608 693H713L812 0H724L663 450q-11 82 -13 115Q631 492 617 449L476 6H373L233 449q-19 58 -34 115Q195 515 187 450L126 0H38Z"
></glyph
><glyph unicode="N" horiz-adv-x="684" d="M80 0V678l80 15L516 157V693h88V0H522L167 534V0H80Z"
></glyph
><glyph unicode="O" horiz-adv-x="798" d="M51 195t0 150t98 255.5T399 706T649 600.5T747 345T649 91T399 -13T149 91ZM142 462t0 -117T213 147.5T399 67t186 80.5T656 345T585 544T399 626T213 544Z"
></glyph
><glyph unicode="P" horiz-adv-x="539" d="M80 0V693H273q106 0 167 -56T501 484T437.5 330T269 273H167V0H80ZM167 351h92q152 0 152 133q0 63 -35 96T262 613H167V351Z"
></glyph
><glyph unicode="Q" horiz-adv-x="798" d="M51 195t0 150t98 255.5T399 706T649 600.5T747 345Q747 222 679 127.5T499 2l45 -174l-80 -19L418 -12q-6 -1 -19 -1Q247 -13 149 91ZM142 462t0 -117T213 147.5T399 67t186 80.5T656 345T585 544T399 626T213 544Z"
></glyph
><glyph unicode="R" d="M80 0V693H273q106 0 167 -56T501 484q0 -74 -39.5 -126T356 286L507 0H409L267 275H167V0H80ZM167 351h92q152 0 152 133q0 129 -149 129H167V351Z"
></glyph
><glyph unicode="S" horiz-adv-x="509" d="M36 38l25 75Q160 67 233 67q60 0 98 30.5T369 177q0 37 -23 65t-57.5 44t-75 37t-75 42.5T81 426.5T58 518q0 89 61.5 138.5T265 706q80 0 169 -39L407 593q-75 33 -142 33q-55 0 -85.5 -29.5T149 518q0 -41 32 -71t77.5 -51.5t91.5 -46t78 -68T460 177Q460 92 395.5 39.5T233 -13Q140 -13 36 38Z"
></glyph
><glyph unicode="T" horiz-adv-x="544" d="M228 0V613H33v80H511V613H316V0H228Z"
></glyph
><glyph unicode="U" horiz-adv-x="658" d="M65 251V693h87V262q0 -89 45.5 -142T329 67q85 0 130.5 53.5T505 263V693h88V251Q593 137 520 62T329 -13Q210 -13 137.5 61.5T65 251Z"
></glyph
><glyph unicode="V" horiz-adv-x="620" d="M256 0L25 693h90L275 207Q293 150 309 87q5 16 17.5 61T344 207L505 693h90L364 0H256Z"
></glyph
><glyph unicode="W" horiz-adv-x="873" d="M182 0L36 693h89L219 232q8 -39 20 -127q21 77 38 128L387 561h99L596 233q16 -47 38 -129q12 88 20 128l94 461h89L691 0H589L470 351q-15 43 -34 111Q423 410 403 351L284 0H182Z"
></glyph
><glyph unicode="X" horiz-adv-x="621" d="M41 693H141L311 429L483 693h97L362 357L593 0H492L310 283L126 0H28L259 355L41 693Z"
></glyph
><glyph unicode="Y" horiz-adv-x="604" d="M256 0V285L28 693h98L302 372L479 693h97L346 285V0H256Z"
></glyph
><glyph unicode="Z" horiz-adv-x="546" d="M45 0V60L376 613H53v80H488V633L158 80H501V0H45Z"
></glyph
><glyph unicode="[" horiz-adv-x="296" d="M96 -191V793H257V722H181V-121h76v-70H96Z"
></glyph
><glyph unicode="\" horiz-adv-x="425" d="M296 -97L53 730h75L372 -97H296Z"
></glyph
><glyph unicode="]" horiz-adv-x="296" d="M40 -191v70h75V722H40v71H200V-191H40Z"
></glyph
><glyph unicode="^" horiz-adv-x="577" d="M91 381L249 693h83L490 381H403L290 619L178 381H91Z"
></glyph
><glyph unicode="_" horiz-adv-x="500" d="M0 -147v71H500v-71H0Z"
></glyph
><glyph unicode="`" horiz-adv-x="247" d="M125 579L49 724h91L197 579H125Z"
></glyph
><glyph unicode="a" horiz-adv-x="598" d="M458 0l-9 74Q388 -13 281 -13Q177 -13 111.5 64T46 251q0 108 66.5 185T281 513q101 0 162 -79v66l85 -10V0H458ZM221 64t66 0t113.5 51.5T448 251q0 83 -47 134T287 436q-65 0 -109 -52T134 251T177.5 117Z"
></glyph
><glyph unicode="b" horiz-adv-x="598" d="M70 0V718l85 23V434q59 79 162 79T486 436T552 250T486 64T317 -13Q209 -13 149 74L140 0H70ZM311 64q66 0 109.5 52.5T464 250T420.5 383.5T311 436T197.5 385T150 251T197 116T311 64Z"
></glyph
><glyph unicode="c" horiz-adv-x="512" d="M450 97L475 22Q400 -13 307 -13Q188 -13 117 63T46 250t71 187t190 76q85 0 169 -36L452 406q-77 30 -144 30q-81 0 -127.5 -54T134 250T180.5 118T307 64q61 0 143 33Z"
></glyph
><glyph unicode="d" horiz-adv-x="598" d="M458 0l-9 74Q389 -13 281 -13Q178 -13 112 64T46 250t66 186t169 77q101 0 162 -79V728h85V0H458ZM287 64q67 0 114 52t47 135T400.5 385T287 436T177.5 383.5T134 250T177.5 116.5T287 64Z"
></glyph
><glyph unicode="e" horiz-adv-x="547" d="M450 95L467 20Q391 -13 302 -13Q185 -13 115.5 62.5T46 249t65 187.5T280 513q111 0 168.5 -76T506 242H134q2 -78 46.5 -128T303 64q69 0 147 31ZM139 306H419Q398 436 280 436q-52 0 -90 -32.5T139 306Z"
></glyph
><glyph unicode="f" horiz-adv-x="312" d="M94 0V437H12v63H94v80q0 78 44 119.5T258 741q40 0 84 -13L326 653q-33 11 -63 11q-45 0 -64.5 -21.5T179 576V500H304V437H179V0H94Z"
></glyph
><glyph unicode="g" horiz-adv-x="598" d="M111 -194l25 70q70 -31 148 -31q77 0 118.5 45.5T444 12V77Q382 0 281 0Q177 0 111.5 75T46 256t66 181.5T281 513q102 0 165 -79l3 66l80 -10V1q0 -102 -68.5 -167.5T284 -232q-94 0 -173 38ZM220 77t67 0t114 49t47 131q0 80 -46.5 129.5T287 436q-66 0 -109.5 -50T134 256q0 -79 43 -129Z"
></glyph
><glyph unicode="h" d="M70 0V717l85 24V428q52 85 164 85q75 0 120.5 -51.5T485 322V0H400V307q0 60 -25 94.5T302 436q-67 0 -107 -53.5T155 233V0H70Z"
></glyph
><glyph unicode="i" horiz-adv-x="224" d="M57 637t0 23t16 38t39 15q22 0 38.5 -15T167 660q0 -22 -16 -38T112 606q-24 0 -39.5 15.5ZM70 0V500h85V0H70Z"
></glyph
><glyph unicode="j" horiz-adv-x="224" d="M57 637t0 23t16 38t39 15q22 0 38.5 -15T167 660q0 -22 -16 -38T112 606q-24 0 -39.5 15.5ZM-93 -218l16 74q37 -11 61 -11q86 0 86 91V500h85V-70q0 -78 -44 -120T-9 -232q-33 0 -84 14Z"
></glyph
><glyph unicode="k" horiz-adv-x="493" d="M70 0V718l85 23V278L338 500H440L278 309L480 0H383L223 243L155 163V0H70Z"
></glyph
><glyph unicode="l" horiz-adv-x="231" d="M70 92V717l85 24V107q0 -24 9.5 -34.5T196 62L186 -12Q70 -12 70 92Z"
></glyph
><glyph unicode="m" horiz-adv-x="830" d="M70 0V490l72 10l9 -69q49 82 147 82q106 0 145 -96q50 96 160 96q75 0 118.5 -50.5T765 324V0H680V309q0 127 -93 127q-55 0 -91 -50.5T460 238V0H375V309q0 127 -93 127q-53 0 -90 -50T155 245V0H70Z"
></glyph
><glyph unicode="n" d="M70 0V490l72 10l9 -77q53 90 168 90q75 0 120.5 -51.5T485 322V0H400V307q0 60 -25 94.5T302 436q-67 0 -107 -53.5T155 233V0H70Z"
></glyph
><glyph unicode="o" horiz-adv-x="600" d="M411 -13t-111 0T117.5 63.5T46 250q0 109 72 186t182 77T482 436T554 250Q554 140 482.5 63.5ZM228 64t72 0t119 53.5T466 250T419 382.5T300 436T181 382.5T134 250T181 117.5Z"
></glyph
><glyph unicode="p" horiz-adv-x="598" d="M70 -219V493l70 7l9 -75q60 88 168 88q103 0 169 -77T552 250T486 64T317 -13Q213 -13 155 65V-219H70ZM245 64t66 0t109.5 52.5T464 250T420.5 383.5T311 436q-67 0 -114 -52T150 249T197.5 115Z"
></glyph
><glyph unicode="q" horiz-adv-x="598" d="M443 -219V65Q383 -13 281 -13T112.5 64.5T46 250q0 109 66 186t169 77q107 0 168 -87l9 74l70 -7V-195l-85 -24ZM221 64t66 0t113.5 51.5T448 250T401 384.5T287 436q-66 0 -109.5 -52.5T134 250T177.5 116.5Z"
></glyph
><glyph unicode="r" horiz-adv-x="338" d="M70 0V490l72 10l10 -81q56 94 172 94V436q-77 0 -123 -58T155 234V0H70Z"
></glyph
><glyph unicode="s" horiz-adv-x="392" d="M34 26L57 99Q129 64 182 64q37 0 61.5 20T268 133q0 27 -22.5 46T191 212.5T127 244T72.5 293.5T50 371q0 66 47 104t112 38q62 0 132 -32L315 412q-54 24 -103 24q-35 0 -54.5 -18T138 371q0 -26 22.5 -45T215 292t64 -33t54.5 -50T356 133Q356 68 307.5 27.5T185 -13Q112 -13 34 26Z"
></glyph
><glyph unicode="t" horiz-adv-x="347" d="M88 145V437H19v63H88V621l85 26V500H292V437H173V152q0 -88 77 -88q32 0 63 11L329 0Q284 -13 245 -13q-71 0 -114 40T88 145Z"
></glyph
><glyph unicode="u" d="M65 178V500h85V193q0 -60 24.5 -94.5T247 64q67 0 107.5 53.5T395 267V500h85V0H408L398 76Q345 -13 231 -13q-75 0 -120.5 51.5T65 178Z"
></glyph
><glyph unicode="v" horiz-adv-x="491" d="M197 0L18 500h88L209 205Q223 168 245 82q28 99 37 123L385 500h88L294 0H197Z"
></glyph
><glyph unicode="w" horiz-adv-x="737" d="M163 0L23 500h87L189 210Q201 168 216 92q4 14 13.5 56.5T244 209l79 291h91L493 209q7 -26 28 -117q13 67 27 118l79 290h87L573 0H476L396 294q-14 51 -28 115Q359 363 341 294L260 0H163Z"
></glyph
><glyph unicode="x" horiz-adv-x="472" d="M36 500h96L237 333L343 500h92L285 267L454 0H358L234 196L109 0H17L185 262L36 500Z"
></glyph
><glyph unicode="y" horiz-adv-x="489" d="M39 -137q39 -18 73 -18q50 0 73 69L213 0H198L21 500h90L216 189q3 -8 32 -109q14 59 31 110l99 310h89L260 -121q-18 -54 -56 -82.5T118 -232q-56 0 -104 24l25 71Z"
></glyph
><glyph unicode="z" horiz-adv-x="437" d="M41 0V51L274 423H54v77H387V449L154 77H396V0H41Z"
></glyph
><glyph unicode="{" horiz-adv-x="382" d="M164 -21V182q0 42 -25 64.5T73 269v64q41 0 66 22.5T164 420V623q0 82 35.5 125.5T318 793V715q-42 0 -56.5 -19.5T247 626V420q0 -44 -16.5 -71.5T170 301q44 -20 60.5 -47.5T247 182V-24q0 -50 14.5 -69.5T318 -113v-78q-83 1 -118.5 44.5T164 -21Z"
></glyph
><glyph unicode="|" horiz-adv-x="242" d="M80 -99V769h82V-99H80Z"
></glyph
><glyph unicode="}" horiz-adv-x="382" d="M64 -191v78q42 0 56.5 19.5T135 -24V182q0 44 16.5 71.5T212 301q-44 20 -60.5 47.5T135 420V626q0 50 -14.5 69.5T64 715v78q83 -1 118.5 -44.5T218 623V420q0 -42 25.5 -64.5T309 333V269q-40 0 -65.5 -22.5T218 182V-21q0 -82 -35.5 -125.5T64 -191Z"
></glyph
><glyph unicode="~" horiz-adv-x="561" d="M165 563H83q0 66 31.5 104T203 705q30 0 58.5 -19.5t52 -39T354 627q42 0 42 66h82q0 -66 -31.5 -104T358 551q-30 0 -58.5 19.5t-52 39T207 629q-42 0 -42 -66Z"
></glyph
><glyph unicode="&#xa0;" horiz-adv-x="243" d=""
></glyph
><glyph unicode="&#xa1;" horiz-adv-x="280" d="M79 530q0 24 17.5 41.5T139 589t42.5 -17.5T199 530T181 489T139 472q-25 0 -42.5 16.5T79 530ZM96 -116V377h85V-116H96Z"
></glyph
><glyph unicode="&#xa2;" horiz-adv-x="551" d="M273 -124V-10Q172 4 113.5 77T55 250t58.5 173T273 510V624h75V511q65 -4 137 -34L461 406q-77 30 -144 30q-82 0 -129 -54T141 250T187.5 118T316 64q61 0 143 33L484 22Q420 -7 348 -12V-124H273Z"
></glyph
><glyph unicode="&#xa3;" horiz-adv-x="522" d="M72 0V73q81 73 81 168q0 10 -2 30H57v65h78q-27 89 -27 164q0 95 59.5 150.5T323 706q73 0 158 -40L455 593q-69 33 -132 33T227.5 592T195 500q0 -66 30 -164H392V271H238q3 -17 3 -33Q241 141 174 78H476V0H72Z"
></glyph
><glyph unicode="&#xa4;" horiz-adv-x="530" d="M61 110l60 60Q98 208 98 255t24 85L61 402l58 58l61 -62q42 25 86 25q45 0 83 -24l62 61l58 -58L408 342q26 -41 26 -87q0 -44 -25 -86l60 -59L411 52l-60 59Q314 87 266 87q-50 0 -88 25L119 52L61 110ZM176 292t0 -37t26 -63.5T266 165q37 0 63 26.5T355 255t-26 63t-63 26T202.5 318Z"
></glyph
><glyph unicode="&#xa5;" horiz-adv-x="552" d="M91 110v65H231v89H91v64H208L21 693h97L276 375L435 693h96L344 328H461V264H320V175H461V110H320V0H231V110H91Z"
></glyph
><glyph unicode="&#xa6;" horiz-adv-x="242" d="M80 449V769h82V449H80ZM80 -99V221h82V-99H80Z"
></glyph
><glyph unicode="&#xa7;" horiz-adv-x="536" d="M61 -40L82 33Q151 0 220 0q46 0 71.5 21T317 80q0 33 -24.5 56t-60 38t-71 33t-60 52T77 343q0 91 78 133q-18 30 -18 75q0 68 46.5 111.5T303 706q71 0 139 -30L423 604q-59 25 -114 25q-83 0 -83 -77q0 -30 24.5 -51.5t60 -37.5t71 -35t60 -54T466 289q0 -88 -79 -132q19 -33 19 -76Q406 12 353 -32.5T224 -77q-81 0 -163 37ZM328 216q49 17 49 72q0 27 -16.5 47T324 365t-53.5 25.5T219 417Q166 404 166 344q0 -31 23 -51t71 -42t68 -35Z"
></glyph
><glyph unicode="&#xa8;" horiz-adv-x="409" d="M292 595q-22 0 -38 16.5T238 650q0 23 16 39.5T292 706q23 0 39 -16.5T347 650T331 611T292 595ZM61 650q0 23 16 39.5T116 706t39 -16.5T171 650q0 -22 -16.5 -38.5T116 595q-23 0 -39 16.5T61 650Z"
></glyph
><glyph unicode="&#xa9;" horiz-adv-x="749" d="M517 1T375 1T142 96.5T51 334t91 238t233 96T607.5 572T698 334T607.5 96.5ZM259 61t116 0t188 78.5T635 334q0 115 -72 194.5T375 608T186.5 528.5T114 334q0 -116 72.5 -194.5ZM468 231l16 -54Q432 156 379 156q-83 0 -130.5 50.5T201 334t47.5 128.5T379 514q51 0 104 -21L466 441q-43 17 -87 17q-57 0 -86.5 -35.5T263 334q0 -52 29.5 -87T379 212q43 0 89 19Z"
></glyph
><glyph unicode="&#xaa;" horiz-adv-x="437" d="M330 331l-7 46Q281 322 212 322q-73 0 -119 54.5T47 507T93 638t119 55q67 0 107 -51v42l71 -7V331H330ZM219 385q44 0 74.5 34.5T324 508q0 55 -31 88.5T219 630q-45 0 -72.5 -35T119 507t27.5 -87.5T219 385Z"
></glyph
><glyph unicode="&#xab;" horiz-adv-x="515" d="M383 64L248 258L383 452l69 -47L350 258L452 112L383 64ZM197 64L63 258L197 452l70 -47L165 258L267 112L197 64Z"
></glyph
><glyph unicode="&#xac;" horiz-adv-x="646" d="M97 215v83H542V70H459V215H97Z"
></glyph
><glyph unicode="&#xad;" horiz-adv-x="0" d=""
></glyph
><glyph unicode="&#xae;" horiz-adv-x="749" d="M517 1T375 1T142 96.5T51 334t91 238t233 96T607.5 572T698 334T607.5 96.5ZM259 61t116 0t188 78.5T635 334q0 115 -72 194.5T375 608T186.5 528.5T114 334q0 -116 72.5 -194.5ZM267 170V513H369q60 0 91 -29t31 -81q0 -34 -17 -60.5T425 304L490 170H426L367 296H328V170H267ZM328 348h40q61 0 61 55q0 54 -61 54H328V348Z"
></glyph
><glyph unicode="&#xaf;" horiz-adv-x="357" d="M45 617v72H311V617H45Z"
></glyph
><glyph unicode="&#xb0;" horiz-adv-x="357" d="M232 439t-53 0T88.5 476.5T51 567q0 54 37.5 91.5T179 696t90 -37.5T306 567q0 -53 -37 -90.5ZM179 499q28 0 48 20t20 48t-20 48.5T179 636T131 616T111 567t19.5 -48.5T179 499Z"
></glyph
><glyph unicode="&#xb1;" horiz-adv-x="616" d="M81 215v82H267V459h82V297H535V215H349V53H267V215H81ZM81 -88V-9H535V-88H81Z"
></glyph
><glyph unicode="&#xb4;" horiz-adv-x="247" d="M49 579l58 145h90L122 579H49Z"
></glyph
><glyph unicode="&#xb5;" horiz-adv-x="548" d="M68 -219V500h85V205q0 -59 31.5 -100T276 64q59 0 91 41t32 100V500h85V194Q484 107 426.5 47T276 -13q-72 0 -123 41V-219H68Z"
></glyph
><glyph unicode="&#xb6;" horiz-adv-x="578" d="M246 -72V289q-87 3 -145.5 61T42 490q0 85 60 144t146 59H511V-72H426V610H331V-72H246Z"
></glyph
><glyph unicode="&#xb7;" horiz-adv-x="245" d="M122 199q-23 0 -39.5 17T66 256q0 24 16.5 41T122 314q24 0 40.5 -17T179 256q0 -23 -16.5 -40T122 199Z"
></glyph
><glyph unicode="&#xb8;" horiz-adv-x="309" d="M61 -214l13 55q31 -13 64 -13q46 0 46 34q0 31 -46 31q-20 0 -53 -5L103 0h62l-9 -59q91 -2 91 -80q0 -39 -28 -65.5T139 -231q-41 0 -78 17Z"
></glyph
><glyph unicode="&#xba;" horiz-adv-x="455" d="M47 430t0 77T98 638.5T227 693q79 0 130 -54.5T408 507T357 376T227 322T97.5 376ZM227 385q47 0 77.5 34.5T335 507t-30.5 88T227 630q-45 0 -76.5 -35T119 507t31 -87.5T227 385Z"
></glyph
><glyph unicode="&#xbb;" horiz-adv-x="515" d="M248 111L351 258L248 404l70 48L452 258L318 64l-70 47ZM63 111L165 258L63 404l69 48L267 258L132 64L63 111Z"
></glyph
><glyph unicode="&#xbf;" horiz-adv-x="505" d="M200 542q0 24 18 41.5T260 601q26 0 43 -17.5T320 542q0 -25 -17 -41.5T260 484q-24 0 -42 16.5T200 542ZM393 9l36 -71q-90 -55 -169 -55q-90 0 -140 51.5T70 49q0 38 15 72t37 61t44 55t37 66.5T218 387h85q0 -51 -15 -94.5t-37 -73t-43.5 -55T171 112T156 58q0 -41 26.5 -67T261 -35q61 0 132 44Z"
></glyph
><glyph unicode="&#xc0;" horiz-adv-x="626" d="M281 757L205 902h91L353 757H281ZM28 0L259 693H367L598 0H509L440 208H186L117 0H28ZM211 286H415L348 486q-12 34 -35 121Q292 526 278 486L211 286Z"
></glyph
><glyph unicode="&#xc1;" horiz-adv-x="626" d="M274 757l57 145h91L346 757H274ZM28 0L259 693H367L598 0H509L440 208H186L117 0H28ZM211 286H415L348 486q-12 34 -35 121Q292 526 278 486L211 286Z"
></glyph
><glyph unicode="&#xc2;" horiz-adv-x="626" d="M173 757l97 145h87L454 757H365l-52 92L262 757H173ZM28 0L259 693H367L598 0H509L440 208H186L117 0H28ZM211 286H415L348 486q-12 34 -35 121Q292 526 278 486L211 286Z"
></glyph
><glyph unicode="&#xc3;" horiz-adv-x="626" d="M208 787l-37 52q21 26 39.5 38T257 889q26 0 61.5 -20T367 849q25 0 50 30l37 -53Q433 800 414.5 788.5T368 777q-25 0 -61 20t-49 20q-24 0 -50 -30ZM28 0L259 693H367L598 0H509L440 208H186L117 0H28ZM211 286H415L348 486q-12 34 -35 121Q292 526 278 486L211 286Z"
></glyph
><glyph unicode="&#xc4;" horiz-adv-x="626" d="M401 773q-22 0 -38 16.5T347 828q0 23 16 39.5T401 884q23 0 39 -16.5T456 828T440 789T401 773ZM170 828q0 23 16 39.5T225 884t39 -16.5T280 828q0 -22 -16 -38.5T225 773t-39 16.5T170 828ZM28 0L259 693H367L598 0H509L440 208H186L117 0H28ZM211 286H415L348 486q-12 34 -35 121Q292 526 278 486L211 286Z"
></glyph
><glyph unicode="&#xc5;" horiz-adv-x="626" d="M216 837q0 39 28.5 66.5T313 931t68 -27.5T409 837q0 -40 -28 -67.5T313 742t-68.5 27.5T216 837ZM282 836q0 -12 9 -21.5T313 805q12 0 21.5 9t9.5 22q0 12 -9 22t-21 10q-13 0 -22.5 -9T282 836ZM28 0L259 693H367L598 0H509L440 208H186L117 0H28ZM211 286H415L348 486q-12 34 -35 121Q292 526 278 486L211 286Z"
></glyph
><glyph unicode="&#xc6;" horiz-adv-x="927" d="M28 0L377 693H768l15 -80H509L547 390H812l14 -78H562L602 80H884L899 0H529L492 209H227L124 0H28ZM267 287H478L423 602L267 287Z"
></glyph
><glyph unicode="&#xc7;" horiz-adv-x="646" d="M305 -214l12 55q33 -13 65 -13q24 0 34.5 10t10.5 24q0 31 -46 31q-18 0 -53 -5L345 -9Q207 8 129 107.5T51 346q0 100 40 180.5t121 130T402 706q99 0 194 -35L575 596q-87 29 -173 29Q274 625 208 545.5T142 346q0 -119 66 -198.5T402 68q79 0 172 31L596 21Q506 -11 406 -13l-6 -46q43 -1 66.5 -21.5T490 -139q0 -39 -28 -65.5T383 -231q-41 0 -78 17Z"
></glyph
><glyph unicode="&#xc8;" horiz-adv-x="508" d="M248 757L173 902h90L321 757H248ZM80 0V693H452V613H167V391H430L418 313H167V80H459V0H80Z"
></glyph
><glyph unicode="&#xc9;" horiz-adv-x="508" d="M215 757l58 145h90L288 757H215ZM80 0V693H452V613H167V391H430L418 313H167V80H459V0H80Z"
></glyph
><glyph unicode="&#xca;" horiz-adv-x="508" d="M129 757l97 145h87L410 757H321l-52 92L218 757H129ZM80 0V693H452V613H167V391H430L418 313H167V80H459V0H80Z"
></glyph
><glyph unicode="&#xcb;" horiz-adv-x="508" d="M362 773q-22 0 -38 16.5T308 828q0 23 16 39.5T362 884q23 0 39 -16.5T417 828T401 789T362 773ZM131 828q0 23 16 39.5T186 884t39 -16.5T241 828q0 -22 -16.5 -38.5T186 773q-23 0 -39 16.5T131 828ZM80 0V693H452V613H167V391H430L418 313H167V80H459V0H80Z"
></glyph
><glyph unicode="&#xcc;" horiz-adv-x="247" d="M92 757L16 902h91L164 757H92ZM80 0V693h87V0H80Z"
></glyph
><glyph unicode="&#xcd;" horiz-adv-x="247" d="M85 757l58 145h90L158 757H85ZM80 0V693h87V0H80Z"
></glyph
><glyph unicode="&#xce;" horiz-adv-x="247" d="M-17 757L80 902h87L264 757H175l-52 92L72 757H-17ZM80 0V693h87V0H80Z"
></glyph
><glyph unicode="&#xcf;" horiz-adv-x="247" d="M212 773q-22 0 -38 16.5T158 828q0 23 16 39.5T212 884q23 0 39 -16.5T267 828T251 789T212 773ZM-19 828q0 23 16 39.5T36 884T75 867.5T91 828Q91 806 74.5 789.5T36 773q-23 0 -39 16.5T-19 828ZM80 0V693h87V0H80Z"
></glyph
><glyph unicode="&#xd0;" horiz-adv-x="691" d="M80 0V317H8v67H80V693H314q107 0 182.5 -48.5T606 519T640 345Q640 194 556.5 97T314 0H80ZM167 80H303q67 0 116.5 21.5t77 60t40 84T549 345T536.5 445t-40 85t-77 61T303 613H167V384H328V317H167V80Z"
></glyph
><glyph unicode="&#xd1;" horiz-adv-x="684" d="M237 787l-37 52q20 26 39 38t47 12q25 0 61 -20t48 -20q25 0 50 30l37 -53Q444 777 396 777q-25 0 -60.5 20T287 817q-24 0 -50 -30ZM80 0V678l80 15L516 157V693h88V0H522L167 534V0H80Z"
></glyph
><glyph unicode="&#xd2;" horiz-adv-x="798" d="M364 757L289 902h90L437 757H364ZM51 195t0 150t98 255.5T399 706T649 600.5T747 345T649 91T399 -13T149 91ZM142 462t0 -117T213 147.5T399 67t186 80.5T656 345T585 544T399 626T213 544Z"
></glyph
><glyph unicode="&#xd3;" horiz-adv-x="798" d="M355 757l57 145h91L427 757H355ZM51 195t0 150t98 255.5T399 706T649 600.5T747 345T649 91T399 -13T149 91ZM142 462t0 -117T213 147.5T399 67t186 80.5T656 345T585 544T399 626T213 544Z"
></glyph
><glyph unicode="&#xd4;" horiz-adv-x="798" d="M259 757l97 145h87L540 757H451l-52 92L348 757H259ZM51 195t0 150t98 255.5T399 706T649 600.5T747 345T649 91T399 -13T149 91ZM142 462t0 -117T213 147.5T399 67t186 80.5T656 345T585 544T399 626T213 544Z"
></glyph
><glyph unicode="&#xd5;" horiz-adv-x="798" d="M295 787l-37 52q20 26 39 38t47 12q25 0 61 -20t48 -20q25 0 50 30l37 -53Q502 777 454 777q-25 0 -60.5 20T345 817q-24 0 -50 -30ZM51 195t0 150t98 255.5T399 706T649 600.5T747 345T649 91T399 -13T149 91ZM142 462t0 -117T213 147.5T399 67t186 80.5T656 345T585 544T399 626T213 544Z"
></glyph
><glyph unicode="&#xd6;" horiz-adv-x="798" d="M487 773q-22 0 -38 16.5T433 828q0 23 16 39.5T487 884q23 0 39 -16.5T542 828T526 789T487 773ZM256 828q0 23 16 39.5T311 884t39 -16.5T366 828q0 -22 -16 -38.5T311 773t-39 16.5T256 828ZM51 195t0 150t98 255.5T399 706T649 600.5T747 345T649 91T399 -13T149 91ZM142 462t0 -117T213 147.5T399 67t186 80.5T656 345T585 544T399 626T213 544Z"
></glyph
><glyph unicode="&#xd7;" horiz-adv-x="494" d="M57 126L189 258L57 390l58 58L247 316L379 448l57 -58L304 258L436 126L379 68L247 200L115 68L57 126Z"
></glyph
><glyph unicode="&#xd8;" horiz-adv-x="798" d="M104 -5l59 81Q51 182 51 345q0 150 98 255.5T399 706q100 0 184 -53l56 78l51 -38L633 615Q747 507 747 345Q747 195 649 91T399 -13Q294 -13 214 38L155 -43L104 -5ZM214 146L534 587q-62 39 -135 39Q284 626 213 544T142 345q0 -119 72 -199ZM583 544L263 105Q323 67 399 67q115 0 186 80.5T656 345q0 118 -73 199Z"
></glyph
><glyph unicode="&#xd9;" horiz-adv-x="658" d="M316 757L241 902h90L389 757H316ZM65 251V693h87V262q0 -89 45.5 -142T329 67q85 0 130.5 53.5T505 263V693h88V251Q593 137 520 62T329 -13Q210 -13 137.5 61.5T65 251Z"
></glyph
><glyph unicode="&#xda;" horiz-adv-x="658" d="M281 757l57 145h91L353 757H281ZM65 251V693h87V262q0 -89 45.5 -142T329 67q85 0 130.5 53.5T505 263V693h88V251Q593 137 520 62T329 -13Q210 -13 137.5 61.5T65 251Z"
></glyph
><glyph unicode="&#xdb;" horiz-adv-x="658" d="M189 757l97 145h87L470 757H381l-52 92L278 757H189ZM65 251V693h87V262q0 -89 45.5 -142T329 67q85 0 130.5 53.5T505 263V693h88V251Q593 137 520 62T329 -13Q210 -13 137.5 61.5T65 251Z"
></glyph
><glyph unicode="&#xdc;" horiz-adv-x="658" d="M416 773q-22 0 -38 16.5T362 828q0 23 16 39.5T416 884q23 0 39 -16.5T471 828T455 789T416 773ZM185 828q0 23 16 39.5T240 884t39 -16.5T295 828q0 -22 -16.5 -38.5T240 773q-23 0 -39 16.5T185 828ZM65 251V693h87V262q0 -89 45.5 -142T329 67q85 0 130.5 53.5T505 263V693h88V251Q593 137 520 62T329 -13Q210 -13 137.5 61.5T65 251Z"
></glyph
><glyph unicode="&#xdd;" horiz-adv-x="604" d="M253 757l58 145h90L326 757H253ZM256 0V285L28 693h98L302 372L479 693h97L346 285V0H256Z"
></glyph
><glyph unicode="&#xde;" horiz-adv-x="539" d="M80 0V693h87V594H269q105 0 168.5 -56.5T501 385T435 231.5T263 174H167V0H80ZM167 252h80q86 0 125 36.5T411 385q0 129 -159 129H167V252Z"
></glyph
><glyph unicode="&#xdf;" horiz-adv-x="586" d="M94 0V437H12v63H94v75q0 78 46.5 122T262 741T384.5 697T432 575q0 -32 -15.5 -61.5T382.5 466t-34 -44T333 370t22.5 -46T410 289.5t63.5 -32t54 -49.5T550 132Q550 64 498.5 25.5T379 -13q-76 0 -150 40l22 74Q325 64 377 64q36 0 60.5 18.5T462 132q0 27 -22 46.5T386 212t-63.5 31T269 292t-22 78q0 33 15.5 62T296 478.5T329.5 521T345 572q0 92 -83 92T179 572V0H94Z"
></glyph
><glyph unicode="&#xe0;" horiz-adv-x="598" d="M266 579L190 724h91L338 579H266ZM458 0l-9 74Q388 -13 281 -13Q177 -13 111.5 64T46 251q0 108 66.5 185T281 513q101 0 162 -79v66l85 -10V0H458ZM221 64t66 0t113.5 51.5T448 251q0 83 -47 134T287 436q-65 0 -109 -52T134 251T177.5 117Z"
></glyph
><glyph unicode="&#xe1;" horiz-adv-x="598" d="M254 579l57 145h91L326 579H254ZM458 0l-9 74Q388 -13 281 -13Q177 -13 111.5 64T46 251q0 108 66.5 185T281 513q101 0 162 -79v66l85 -10V0H458ZM221 64t66 0t113.5 51.5T448 251q0 83 -47 134T287 436q-65 0 -109 -52T134 251T177.5 117Z"
></glyph
><glyph unicode="&#xe2;" horiz-adv-x="598" d="M159 579l97 145h87L440 579H351l-52 92L248 579H159ZM458 0l-9 74Q388 -13 281 -13Q177 -13 111.5 64T46 251q0 108 66.5 185T281 513q101 0 162 -79v66l85 -10V0H458ZM221 64t66 0t113.5 51.5T448 251q0 83 -47 134T287 436q-65 0 -109 -52T134 251T177.5 117Z"
></glyph
><glyph unicode="&#xe3;" horiz-adv-x="598" d="M190 609l-37 52q21 26 39.5 38T239 711q26 0 62 -20t48 -20q25 0 50 30l37 -53Q415 622 396.5 610.5T350 599q-25 0 -61 20t-49 20q-24 0 -50 -30ZM458 0l-9 74Q388 -13 281 -13Q177 -13 111.5 64T46 251q0 108 66.5 185T281 513q101 0 162 -79v66l85 -10V0H458ZM221 64t66 0t113.5 51.5T448 251q0 83 -47 134T287 436q-65 0 -109 -52T134 251T177.5 117Z"
></glyph
><glyph unicode="&#xe4;" horiz-adv-x="598" d="M387 595q-22 0 -38 16.5T333 650q0 23 16 39.5T387 706q23 0 39 -16.5T442 650T426 611T387 595ZM156 650q0 23 16 39.5T211 706t39 -16.5T266 650q0 -22 -16 -38.5T211 595t-39 16.5T156 650ZM458 0l-9 74Q388 -13 281 -13Q177 -13 111.5 64T46 251q0 108 66.5 185T281 513q101 0 162 -79v66l85 -10V0H458ZM221 64t66 0t113.5 51.5T448 251q0 83 -47 134T287 436q-65 0 -109 -52T134 251T177.5 117Z"
></glyph
><glyph unicode="&#xe5;" horiz-adv-x="598" d="M202 659q0 39 28.5 66.5T299 753t68 -27.5T395 659q0 -40 -28 -67.5T299 564q-41 0 -69 27.5T202 659ZM268 659q0 -12 9 -22t22 -10q11 0 21 9t10 22q0 12 -9 22t-21 10q-13 0 -22.5 -9T268 659ZM458 0l-9 74Q388 -13 281 -13Q177 -13 111.5 64T46 251q0 108 66.5 185T281 513q101 0 162 -79v66l85 -10V0H458ZM221 64t66 0t113.5 51.5T448 251q0 83 -47 134T287 436q-65 0 -109 -52T134 251T177.5 117Z"
></glyph
><glyph unicode="&#xe6;" horiz-adv-x="903" d="M96 402L80 478q77 35 171 35q61 0 112.5 -27.5T444 402q65 111 192 111q111 0 168.5 -76T862 242H487q2 -78 47 -128T659 64q69 0 147 31L823 20Q747 -13 658 -13q-73 0 -128 31t-86 84Q415 48 363.5 17.5T249 -13Q154 -13 99 36T44 160q0 71 53.5 108.5T245 306H394q-11 60 -47 94t-96 34Q175 434 96 402ZM492 306H775Q754 436 636 436q-52 0 -91.5 -32.5T492 306ZM400 240H246Q130 240 130 161q0 -47 32 -71.5T249 65q64 0 106.5 41.5T400 240Z"
></glyph
><glyph unicode="&#xe7;" horiz-adv-x="512" d="M221 -214l13 55q31 -13 64 -13q46 0 46 34q0 31 -46 31q-20 0 -53 -5L261 -9Q162 5 104 78T46 250q0 111 71 187t190 76q85 0 169 -36L452 406q-77 30 -144 30q-81 0 -127.5 -54T134 250T180.5 118T307 64q61 0 143 33L475 22Q404 -10 323 -13l-7 -46q91 -2 91 -80q0 -39 -28 -65.5T299 -231q-41 0 -78 17Z"
></glyph
><glyph unicode="&#xe8;" horiz-adv-x="547" d="M253 579L177 724h91L325 579H253ZM450 95L467 20Q391 -13 302 -13Q185 -13 115.5 62.5T46 249t65 187.5T280 513q111 0 168.5 -76T506 242H134q2 -78 46.5 -128T303 64q69 0 147 31ZM139 306H419Q398 436 280 436q-52 0 -90 -32.5T139 306Z"
></glyph
><glyph unicode="&#xe9;" horiz-adv-x="547" d="M237 579l57 145h91L309 579H237ZM450 95L467 20Q391 -13 302 -13Q185 -13 115.5 62.5T46 249t65 187.5T280 513q111 0 168.5 -76T506 242H134q2 -78 46.5 -128T303 64q69 0 147 31ZM139 306H419Q398 436 280 436q-52 0 -90 -32.5T139 306Z"
></glyph
><glyph unicode="&#xea;" horiz-adv-x="547" d="M135 579l97 145h87L416 579H327l-52 92L224 579H135ZM450 95L467 20Q391 -13 302 -13Q185 -13 115.5 62.5T46 249t65 187.5T280 513q111 0 168.5 -76T506 242H134q2 -78 46.5 -128T303 64q69 0 147 31ZM139 306H419Q398 436 280 436q-52 0 -90 -32.5T139 306Z"
></glyph
><glyph unicode="&#xeb;" horiz-adv-x="547" d="M361 595q-22 0 -38 16.5T307 650q0 23 16 39.5T361 706q23 0 39 -16.5T416 650T400 611T361 595ZM130 650q0 23 16 39.5T185 706t39 -16.5T240 650q0 -22 -16 -38.5T185 595t-39 16.5T130 650ZM450 95L467 20Q391 -13 302 -13Q185 -13 115.5 62.5T46 249t65 187.5T280 513q111 0 168.5 -76T506 242H134q2 -78 46.5 -128T303 64q69 0 147 31ZM139 306H419Q398 436 280 436q-52 0 -90 -32.5T139 306Z"
></glyph
><glyph unicode="&#xec;" horiz-adv-x="224" d="M74 579L-1 724H89L147 579H74ZM70 0V500h85V0H70Z"
></glyph
><glyph unicode="&#xed;" horiz-adv-x="224" d="M75 579l58 145h90L148 579H75ZM70 0V500h85V0H70Z"
></glyph
><glyph unicode="&#xee;" horiz-adv-x="224" d="M-28 579L69 724h87L253 579H164l-52 92L61 579H-28ZM70 0V500h85V0H70Z"
></glyph
><glyph unicode="&#xef;" horiz-adv-x="224" d="M200 595q-22 0 -38 16.5T146 650q0 23 16 39.5T200 706q23 0 39 -16.5T255 650T239 611T200 595ZM-31 650q0 23 16 39.5T24 706T63 689.5T79 650Q79 628 62.5 611.5T24 595q-23 0 -39 16.5T-31 650ZM70 0V500h85V0H70Z"
></glyph
><glyph unicode="&#xf0;" horiz-adv-x="604" d="M263 547l-22 57l77 28q-15 22 -58 76l74 32q33 -38 64 -79l89 32l22 -57L434 608Q556 419 556 237Q556 134 484 60.5T302 -13Q191 -13 119.5 60T48 237t72.5 177.5T302 488q61 0 118 -33q-25 61 -68 124L263 547ZM302 64q73 0 119.5 49T468 237T421.5 361T302 410q-72 0 -119 -49T136 237T183 113T302 64Z"
></glyph
><glyph unicode="&#xf1;" d="M170 609l-37 52q21 26 39.5 38T219 711q26 0 61.5 -20T329 671q25 0 50 30l37 -53Q395 622 376.5 610.5T330 599q-25 0 -61 20t-49 20q-24 0 -50 -30ZM70 0V490l72 10l9 -77q53 90 168 90q75 0 120.5 -51.5T485 322V0H400V307q0 60 -25 94.5T302 436q-67 0 -107 -53.5T155 233V0H70Z"
></glyph
><glyph unicode="&#xf2;" horiz-adv-x="600" d="M272 579L196 724h91L344 579H272ZM411 -13t-111 0T117.5 63.5T46 250q0 109 72 186t182 77T482 436T554 250Q554 140 482.5 63.5ZM228 64t72 0t119 53.5T466 250T419 382.5T300 436T181 382.5T134 250T181 117.5Z"
></glyph
><glyph unicode="&#xf3;" horiz-adv-x="600" d="M258 579l57 145h91L330 579H258ZM411 -13t-111 0T117.5 63.5T46 250q0 109 72 186t182 77T482 436T554 250Q554 140 482.5 63.5ZM228 64t72 0t119 53.5T466 250T419 382.5T300 436T181 382.5T134 250T181 117.5Z"
></glyph
><glyph unicode="&#xf4;" horiz-adv-x="600" d="M160 579l97 145h87L441 579H352l-52 92L249 579H160ZM411 -13t-111 0T117.5 63.5T46 250q0 109 72 186t182 77T482 436T554 250Q554 140 482.5 63.5ZM228 64t72 0t119 53.5T466 250T419 382.5T300 436T181 382.5T134 250T181 117.5Z"
></glyph
><glyph unicode="&#xf5;" horiz-adv-x="600" d="M196 609l-37 52q20 26 39 38t47 12q25 0 61 -20t48 -20q25 0 50 30l37 -53Q403 599 355 599q-25 0 -60.5 20T246 639q-24 0 -50 -30ZM411 -13t-111 0T117.5 63.5T46 250q0 109 72 186t182 77T482 436T554 250Q554 140 482.5 63.5ZM228 64t72 0t119 53.5T466 250T419 382.5T300 436T181 382.5T134 250T181 117.5Z"
></glyph
><glyph unicode="&#xf6;" horiz-adv-x="600" d="M388 595q-22 0 -38 16.5T334 650q0 23 16 39.5T388 706q23 0 39 -16.5T443 650T427 611T388 595ZM157 650q0 23 16 39.5T212 706t39 -16.5T267 650q0 -22 -16.5 -38.5T212 595q-23 0 -39 16.5T157 650ZM411 -13t-111 0T117.5 63.5T46 250q0 109 72 186t182 77T482 436T554 250Q554 140 482.5 63.5ZM228 64t72 0t119 53.5T466 250T419 382.5T300 436T181 382.5T134 250T181 117.5Z"
></glyph
><glyph unicode="&#xf8;" horiz-adv-x="600" d="M300 -13q-68 0 -126 32L116 -62L64 -23l59 81Q46 133 46 250q0 109 72 186t182 77q70 0 129 -35l57 79l51 -39L479 439q75 -77 75 -189Q554 140 482.5 63.5T300 -13ZM134 250q0 -73 39 -124L382 414q-38 22 -82 22q-72 0 -119 -53.5T134 250ZM300 64q72 0 119 53.5T466 250q0 71 -37 120L221 84Q256 64 300 64Z"
></glyph
><glyph unicode="&#xf9;" d="M244 579L168 724h91L316 579H244ZM65 178V500h85V193q0 -60 24.5 -94.5T247 64q67 0 107.5 53.5T395 267V500h85V0H408L398 76Q345 -13 231 -13q-75 0 -120.5 51.5T65 178Z"
></glyph
><glyph unicode="&#xfa;" d="M230 579l57 145h91L302 579H230ZM65 178V500h85V193q0 -60 24.5 -94.5T247 64q67 0 107.5 53.5T395 267V500h85V0H408L398 76Q345 -13 231 -13q-75 0 -120.5 51.5T65 178Z"
></glyph
><glyph unicode="&#xfb;" d="M133 579l97 145h87L414 579H325l-52 92L222 579H133ZM65 178V500h85V193q0 -60 24.5 -94.5T247 64q67 0 107.5 53.5T395 267V500h85V0H408L398 76Q345 -13 231 -13q-75 0 -120.5 51.5T65 178Z"
></glyph
><glyph unicode="&#xfc;" d="M363 595q-22 0 -38 16.5T309 650q0 23 16 39.5T363 706q23 0 39 -16.5T418 650T402 611T363 595ZM132 650q0 23 16 39.5T187 706t39 -16.5T242 650q0 -22 -16 -38.5T187 595t-39 16.5T132 650ZM65 178V500h85V193q0 -60 24.5 -94.5T247 64q67 0 107.5 53.5T395 267V500h85V0H408L398 76Q345 -13 231 -13q-75 0 -120.5 51.5T65 178Z"
></glyph
><glyph unicode="&#xfd;" horiz-adv-x="489" d="M198 579l57 145h91L270 579H198ZM39 -137q39 -18 73 -18q50 0 73 69L213 0H198L21 500h90L216 189q3 -8 32 -109q14 59 31 110l99 310h89L260 -121q-18 -54 -56 -82.5T118 -232q-56 0 -104 24l25 71Z"
></glyph
><glyph unicode="&#xfe;" horiz-adv-x="598" d="M70 -219V728h85V433q60 80 162 80q103 0 169 -77T552 250T486 64T317 -13Q213 -13 155 65V-219H70ZM245 64t66 0t109.5 52.5T464 250T420.5 383.5T311 436q-67 0 -114 -52T150 249T197.5 115Z"
></glyph
><glyph unicode="&#xff;" horiz-adv-x="489" d="M332 595q-22 0 -38 16.5T278 650q0 23 16 39.5T332 706q23 0 39 -16.5T387 650T371 611T332 595ZM101 650q0 23 16 39.5T156 706t39 -16.5T211 650q0 -22 -16.5 -38.5T156 595q-23 0 -39 16.5T101 650ZM39 -137q39 -18 73 -18q50 0 73 69L213 0H198L21 500h90L216 189q3 -8 32 -109q14 59 31 110l99 310h89L260 -121q-18 -54 -56 -82.5T118 -232q-56 0 -104 24l25 71Z"
></glyph
><glyph unicode="&#x100;" horiz-adv-x="626" d="M179 795v72H445V795H179ZM28 0L259 693H367L598 0H509L440 208H186L117 0H28ZM211 286H415L348 486q-12 34 -35 121Q292 526 278 486L211 286Z"
></glyph
><glyph unicode="&#x101;" horiz-adv-x="598" d="M166 617v72H432V617H166ZM458 0l-9 74Q388 -13 281 -13Q177 -13 111.5 64T46 251q0 108 66.5 185T281 513q101 0 162 -79v66l85 -10V0H458ZM221 64t66 0t113.5 51.5T448 251q0 83 -47 134T287 436q-65 0 -109 -52T134 251T177.5 117Z"
></glyph
><glyph unicode="&#x102;" horiz-adv-x="626" d="M187 899h67q0 -71 58 -71t58 71h68q0 -62 -32 -100T312 761q-61 0 -93 38.5T187 899ZM28 0L259 693H367L598 0H509L440 208H186L117 0H28ZM211 286H415L348 486q-12 34 -35 121Q292 526 278 486L211 286Z"
></glyph
><glyph unicode="&#x103;" horiz-adv-x="598" d="M173 721h68q0 -71 58 -71t58 71h67q0 -61 -32 -99.5T299 583q-62 0 -94 38T173 721ZM458 0l-9 74Q388 -13 281 -13Q177 -13 111.5 64T46 251q0 108 66.5 185T281 513q101 0 162 -79v66l85 -10V0H458ZM221 64t66 0t113.5 51.5T448 251q0 83 -47 134T287 436q-65 0 -109 -52T134 251T177.5 117Z"
></glyph
><glyph unicode="&#x104;" horiz-adv-x="626" d="M28 0L259 693H367L598 0Q510 -67 510 -129q0 -41 35 -41q21 0 44 9l6 -60q-26 -11 -59 -11q-41 0 -68 25t-27 68q0 69 80 139H509L440 208H186L117 0H28ZM211 286H415L348 486q-12 34 -35 121Q292 526 278 486L211 286Z"
></glyph
><glyph unicode="&#x105;" horiz-adv-x="598" d="M519 -161l6 -60q-26 -11 -59 -11q-41 0 -68 25t-27 68q0 73 86 144l-8 69Q388 -13 281 -13Q177 -13 111.5 64T46 251q0 108 66.5 185T281 513q101 0 162 -79v66l85 -10V0Q440 -67 440 -129q0 -41 35 -41q22 0 44 9ZM221 64t66 0t113.5 51.5T448 251q0 83 -47 134T287 436q-65 0 -109 -52T134 251T177.5 117Z"
></glyph
><glyph unicode="&#x106;" horiz-adv-x="646" d="M324 757l58 145h90L397 757H324ZM51 346q0 100 40 180.5t121 130T402 706q99 0 194 -35L575 596q-87 29 -173 29Q274 625 208 545.5T142 346q0 -119 66 -198.5T402 68q79 0 172 31L596 21Q504 -13 402 -13Q239 -13 145 90T51 346Z"
></glyph
><glyph unicode="&#x107;" horiz-adv-x="512" d="M246 579l57 145h91L318 579H246ZM450 97L475 22Q400 -13 307 -13Q188 -13 117 63T46 250t71 187t190 76q85 0 169 -36L452 406q-77 30 -144 30q-81 0 -127.5 -54T134 250T180.5 118T307 64q61 0 143 33Z"
></glyph
><glyph unicode="&#x108;" horiz-adv-x="646" d="M238 757l97 145h87L519 757H430l-52 92L327 757H238ZM51 346q0 100 40 180.5t121 130T402 706q99 0 194 -35L575 596q-87 29 -173 29Q274 625 208 545.5T142 346q0 -119 66 -198.5T402 68q79 0 172 31L596 21Q504 -13 402 -13Q239 -13 145 90T51 346Z"
></glyph
><glyph unicode="&#x109;" horiz-adv-x="512" d="M150 579l97 145h87L431 579H342l-52 92L239 579H150ZM450 97L475 22Q400 -13 307 -13Q188 -13 117 63T46 250t71 187t190 76q85 0 169 -36L452 406q-77 30 -144 30q-81 0 -127.5 -54T134 250T180.5 118T307 64q61 0 143 33Z"
></glyph
><glyph unicode="&#x10a;" horiz-adv-x="646" d="M361 772q-22 0 -38 16.5T307 827q0 23 16 39.5T361 883q23 0 39.5 -16.5T417 827T400.5 788T361 772ZM51 346q0 100 40 180.5t121 130T402 706q99 0 194 -35L575 596q-87 29 -173 29Q274 625 208 545.5T142 346q0 -119 66 -198.5T402 68q79 0 172 31L596 21Q504 -13 402 -13Q239 -13 145 90T51 346Z"
></glyph
><glyph unicode="&#x10b;" horiz-adv-x="512" d="M277 595q-22 0 -38 16.5T223 650q0 23 16 39.5T277 706q23 0 39.5 -16.5T333 650T316.5 611T277 595ZM450 97L475 22Q400 -13 307 -13Q188 -13 117 63T46 250t71 187t190 76q85 0 169 -36L452 406q-77 30 -144 30q-81 0 -127.5 -54T134 250T180.5 118T307 64q61 0 143 33Z"
></glyph
><glyph unicode="&#x10c;" horiz-adv-x="646" d="M337 757L240 902h89l52 -92l51 92h89L424 757H337ZM51 346q0 100 40 180.5t121 130T402 706q99 0 194 -35L575 596q-87 29 -173 29Q274 625 208 545.5T142 346q0 -119 66 -198.5T402 68q79 0 172 31L596 21Q504 -13 402 -13Q239 -13 145 90T51 346Z"
></glyph
><glyph unicode="&#x10d;" horiz-adv-x="512" d="M253 579L156 724h89l52 -92l51 92h89L340 579H253ZM450 97L475 22Q400 -13 307 -13Q188 -13 117 63T46 250t71 187t190 76q85 0 169 -36L452 406q-77 30 -144 30q-81 0 -127.5 -54T134 250T180.5 118T307 64q61 0 143 33Z"
></glyph
><glyph unicode="&#x10e;" horiz-adv-x="691" d="M267 757L170 902h89l52 -92l51 92h89L354 757H267ZM80 0V693H314q107 0 182.5 -48.5T606 519T640 345Q640 194 556.5 97T314 0H80ZM167 80H303q67 0 116.5 21.5t77 60t40 84T549 345T536.5 445t-40 85t-77 61T303 613H167V80Z"
></glyph
><glyph unicode="&#x10f;" horiz-adv-x="598" d="M580 568l27 161h87L643 557l-63 11ZM458 0l-9 74Q389 -13 281 -13Q178 -13 112 64T46 250t66 186t169 77q101 0 162 -79V728h85V0H458ZM287 64q67 0 114 52t47 135T400.5 385T287 436T177.5 383.5T134 250T177.5 116.5T287 64Z"
></glyph
><glyph unicode="&#x110;" horiz-adv-x="691" d="M80 0V317H8v67H80V693H314q107 0 182.5 -48.5T606 519T640 345Q640 194 556.5 97T314 0H80ZM167 80H303q67 0 116.5 21.5t77 60t40 84T549 345T536.5 445t-40 85t-77 61T303 613H167V384H328V317H167V80Z"
></glyph
><glyph unicode="&#x111;" horiz-adv-x="598" d="M458 0l-9 74Q389 -13 281 -13Q178 -13 112 64T46 250t66 186t169 77q101 0 162 -79V581H282v66H443v81h85V647h60V581H528V0H458ZM287 64q67 0 114 52t47 135T400.5 385T287 436T177.5 383.5T134 250T177.5 116.5T287 64Z"
></glyph
><glyph unicode="&#x112;" horiz-adv-x="508" d="M125 795v72H391V795H125ZM80 0V693H452V613H167V391H430L418 313H167V80H459V0H80Z"
></glyph
><glyph unicode="&#x113;" horiz-adv-x="547" d="M141 617v72H407V617H141ZM450 95L467 20Q391 -13 302 -13Q185 -13 115.5 62.5T46 249t65 187.5T280 513q111 0 168.5 -76T506 242H134q2 -78 46.5 -128T303 64q69 0 147 31ZM139 306H419Q398 436 280 436q-52 0 -90 -32.5T139 306Z"
></glyph
><glyph unicode="&#x114;" horiz-adv-x="508" d="M142 899h67q0 -71 58 -71t58 71h67q0 -62 -31.5 -100T267 761t-93.5 38T142 899ZM80 0V693H452V613H167V391H430L418 313H167V80H459V0H80Z"
></glyph
><glyph unicode="&#x115;" horiz-adv-x="547" d="M149 721h67q0 -71 58 -71t58 71h67q0 -62 -31.5 -100T274 583t-93.5 38T149 721ZM450 95L467 20Q391 -13 302 -13Q185 -13 115.5 62.5T46 249t65 187.5T280 513q111 0 168.5 -76T506 242H134q2 -78 46.5 -128T303 64q69 0 147 31ZM139 306H419Q398 436 280 436q-52 0 -90 -32.5T139 306Z"
></glyph
><glyph unicode="&#x116;" horiz-adv-x="508" d="M296 773t-22 0t-38 16.5T220 828q0 23 16 39.5T274 884q23 0 39 -16.5T329 828q0 -22 -16.5 -38.5ZM80 0V693H452V613H167V391H430L418 313H167V80H459V0H80Z"
></glyph
><glyph unicode="&#x117;" horiz-adv-x="547" d="M296 595t-22 0t-38 16.5T220 650q0 23 16 39.5T274 706q23 0 39 -16.5T329 650q0 -22 -16.5 -38.5ZM450 95L467 20Q391 -13 302 -13Q185 -13 115.5 62.5T46 249t65 187.5T280 513q111 0 168.5 -76T506 242H134q2 -78 46.5 -128T303 64q69 0 147 31ZM139 306H419Q398 436 280 436q-52 0 -90 -32.5T139 306Z"
></glyph
><glyph unicode="&#x118;" horiz-adv-x="508" d="M80 0V693H452V613H167V391H430L418 313H167V80H459V0Q371 -67 371 -129q0 -41 35 -41q22 0 43 9l7 -60q-26 -11 -59 -11q-41 0 -68 25t-27 68q0 69 80 139H80Z"
></glyph
><glyph unicode="&#x119;" horiz-adv-x="547" d="M457 -161l7 -60q-26 -11 -59 -11q-41 0 -68 25t-27 68q0 68 55 131q-35 -5 -63 -5Q185 -13 115.5 62.5T46 249t65 187.5T280 513q111 0 168.5 -76T506 242H134q2 -78 46.5 -128T303 64q69 0 147 31L467 20Q431 -8 405 -50.5T379 -129q0 -41 35 -41q22 0 43 9ZM139 306H419Q398 436 280 436q-52 0 -90 -32.5T139 306Z"
></glyph
><glyph unicode="&#x11a;" horiz-adv-x="508" d="M224 757L127 902h89l52 -92l51 92h89L311 757H224ZM80 0V693H452V613H167V391H430L418 313H167V80H459V0H80Z"
></glyph
><glyph unicode="&#x11b;" horiz-adv-x="547" d="M231 579L134 724h89l52 -92l51 92h89L318 579H231ZM450 95L467 20Q391 -13 302 -13Q185 -13 115.5 62.5T46 249t65 187.5T280 513q111 0 168.5 -76T506 242H131q2 -78 47 -128T303 64q69 0 147 31ZM136 306H419Q398 436 280 436q-52 0 -91.5 -32.5T136 306Z"
></glyph
><glyph unicode="&#x11c;" horiz-adv-x="738" d="M253 757l97 145h87L534 757H445l-52 92L342 757H253ZM51 345q0 154 99.5 257.5T420 706q112 0 217 -41L612 591q-96 34 -192 34Q286 625 214 544T142 345q0 -115 72 -196.5T406 67q88 0 182 40V326l85 24V59Q549 -13 406 -13Q251 -13 151 91T51 345Z"
></glyph
><glyph unicode="&#x11d;" horiz-adv-x="598" d="M159 579l97 145h87L440 579H351l-52 92L248 579H159ZM111 -194l25 70q70 -31 148 -31q77 0 118.5 45.5T444 12V77Q382 0 281 0Q177 0 111.5 75T46 256t66 181.5T281 513q102 0 165 -79l3 66l80 -10V1q0 -102 -68.5 -167.5T284 -232q-94 0 -173 38ZM220 77t67 0t114 49t47 131q0 80 -46.5 129.5T287 436q-66 0 -109.5 -50T134 256q0 -79 43 -129Z"
></glyph
><glyph unicode="&#x11e;" horiz-adv-x="738" d="M264 899h67q0 -71 58 -71t58 71h67q0 -62 -31.5 -100T389 761t-93.5 38T264 899ZM51 345q0 154 99.5 257.5T420 706q112 0 217 -41L612 591q-96 34 -192 34Q286 625 214 544T142 345q0 -115 72 -196.5T406 67q88 0 182 40V326l85 24V59Q549 -13 406 -13Q251 -13 151 91T51 345Z"
></glyph
><glyph unicode="&#x11f;" horiz-adv-x="598" d="M162 721h67q0 -71 58 -71t58 71h67q0 -62 -31.5 -100T287 583t-93.5 38T162 721ZM111 -194l25 70q70 -31 148 -31q77 0 118.5 45.5T444 12V77Q382 0 281 0Q177 0 111.5 75T46 256t66 181.5T281 513q102 0 165 -79l3 66l80 -10V1q0 -102 -68.5 -167.5T284 -232q-94 0 -173 38ZM220 77t67 0t114 49t47 131q0 80 -46.5 129.5T287 436q-66 0 -109.5 -50T134 256q0 -79 43 -129Z"
></glyph
><glyph unicode="&#x120;" horiz-adv-x="738" d="M390 773q-22 0 -38 16.5T336 828q0 23 16 39.5T390 884q23 0 39 -16.5T445 828T429 789T390 773ZM51 345q0 154 99.5 257.5T420 706q112 0 217 -41L612 591q-96 34 -192 34Q286 625 214 544T142 345q0 -115 72 -196.5T406 67q88 0 182 40V326l85 24V59Q549 -13 406 -13Q251 -13 151 91T51 345Z"
></glyph
><glyph unicode="&#x121;" horiz-adv-x="598" d="M310 595t-22 0t-38 16.5T234 650q0 23 16 39.5T288 706q23 0 39 -16.5T343 650q0 -22 -16.5 -38.5ZM111 -194l25 70q70 -31 148 -31q77 0 118.5 45.5T444 12V77Q382 0 281 0Q177 0 111.5 75T46 256t66 181.5T281 513q102 0 165 -79l3 66l80 -10V1q0 -102 -68.5 -167.5T284 -232q-94 0 -173 38ZM220 77t67 0t114 49t47 131q0 80 -46.5 129.5T287 436q-66 0 -109.5 -50T134 256q0 -79 43 -129Z"
></glyph
><glyph unicode="&#x122;" horiz-adv-x="738" d="M51 345q0 154 99.5 257.5T420 706q112 0 217 -41L612 591q-96 34 -192 34Q286 625 214 544T142 345q0 -115 72 -196.5T406 67q88 0 182 40V326l85 24V59Q549 -13 406 -13Q251 -13 151 91T51 345ZM337 -225l25 146h88L405 -225H337Z"
></glyph
><glyph unicode="&#x123;" horiz-adv-x="598" d="M251 579l26 146h87L319 579H251ZM111 -194l25 70q70 -31 148 -31q77 0 118.5 45.5T444 12V77Q382 0 281 0Q177 0 111.5 75T46 256t66 181.5T281 513q102 0 165 -79l3 66l80 -10V1q0 -102 -68.5 -167.5T284 -232q-94 0 -173 38ZM220 77t67 0t114 49t47 131q0 80 -46.5 129.5T287 436q-66 0 -109.5 -50T134 256q0 -79 43 -129Z"
></glyph
><glyph unicode="&#x124;" horiz-adv-x="655" d="M187 757l97 145h87L468 757H379l-52 92L276 757H187ZM80 0V693h87V393H488V693h87V0H488V313H167V0H80Z"
></glyph
><glyph unicode="&#x125;" d="M-31 761L66 906h87L250 761H161l-52 92L58 761H-31ZM70 0V717l85 24V428q52 85 164 85q75 0 120.5 -51.5T485 322V0H400V307q0 60 -25 94.5T302 436q-67 0 -107 -53.5T155 233V0H70Z"
></glyph
><glyph unicode="&#x126;" horiz-adv-x="655" d="M80 0V508H20v67H80V693h87V575H488V693h87V575h59V508H575V0H488V313H167V0H80ZM167 393H488V508H167V393Z"
></glyph
><glyph unicode="&#x127;" d="M70 0V581H10v66H70v70l85 24V647H317V581H155V427q36 48 75 67t91 19q75 0 119.5 -52T485 320V0H400V304q0 132 -98 132q-62 0 -104.5 -51.5T155 254V0H70Z"
></glyph
><glyph unicode="&#x128;" horiz-adv-x="247" d="M19 787l-37 52q21 26 39.5 38T68 889q26 0 61.5 -20T178 849q25 0 50 30l37 -53Q244 800 225.5 788.5T179 777q-25 0 -61 20T69 817Q45 817 19 787ZM80 0V693h87V0H80Z"
></glyph
><glyph unicode="&#x129;" horiz-adv-x="224" d="M8 609l-37 52q20 26 39 38t47 12q25 0 61 -20t48 -20q25 0 50 30l37 -53Q215 599 167 599q-25 0 -60.5 20T58 639Q34 639 8 609ZM70 0V500h85V0H70Z"
></glyph
><glyph unicode="&#x12a;" horiz-adv-x="247" d="M-9 795v72H257V795H-9ZM80 0V693h87V0H80Z"
></glyph
><glyph unicode="&#x12b;" horiz-adv-x="224" d="M-21 617v72H245V617H-21ZM70 0V500h85V0H70Z"
></glyph
><glyph unicode="&#x12c;" horiz-adv-x="247" d="M-2 914H65q0 -71 58 -71t58 71h68q0 -62 -32 -100T123 776q-61 0 -93 38T-2 914ZM80 0V693h87V0H80Z"
></glyph
><glyph unicode="&#x12d;" horiz-adv-x="224" d="M-13 721H54q0 -71 58 -71t58 71h67q0 -62 -31.5 -100T112 583T18.5 621T-13 721ZM70 0V500h85V0H70Z"
></glyph
><glyph unicode="&#x12e;" horiz-adv-x="247" d="M80 0V693h87V0Q79 -67 79 -129q0 -41 35 -41q22 0 44 9l6 -60q-26 -11 -59 -11q-41 0 -68 25t-27 68Q10 -70 90 0H80Z"
></glyph
><glyph unicode="&#x12f;" horiz-adv-x="224" d="M57 637t0 23t16 38t39 15q22 0 38.5 -15T167 660q0 -22 -16 -38T112 606q-24 0 -39.5 15.5ZM70 0V500h85V0Q67 -67 67 -129q0 -41 35 -41q20 0 43 9l7 -60q-27 -11 -59 -11q-41 0 -68.5 25T-3 -139Q-3 -69 78 0H70Z"
></glyph
><glyph unicode="&#x130;" horiz-adv-x="247" d="M122 772q-22 0 -38 16T68 827t16 39t38 16q23 0 39 -16t16 -39T161 788T122 772ZM80 0V693h87V0H80Z"
></glyph
><glyph unicode="&#x131;" horiz-adv-x="224" d="M70 0V500h85V0H70Z"
></glyph
><glyph unicode="&#x132;" horiz-adv-x="727" d="M275 26l27 76Q374 67 436 67q129 0 129 162V693h88V217Q653 106 593.5 46.5T436 -13q-82 0 -161 39ZM80 0V693h87V0H80Z"
></glyph
><glyph unicode="&#x133;" horiz-adv-x="449" d="M282 637t0 23t15.5 38T336 713q22 0 39 -15t17 -38q0 -22 -16.5 -38T336 606q-24 0 -39 15.5ZM57 637t0 23t16 38t39 15q22 0 38.5 -15T167 660q0 -22 -16 -38T112 606q-24 0 -39.5 15.5ZM132 -218l15 74q37 -11 61 -11q86 0 86 91V500h85V-70q0 -78 -44 -120T216 -232q-33 0 -84 14ZM70 0V500h85V0H70Z"
></glyph
><glyph unicode="&#x134;" horiz-adv-x="480" d="M220 757l97 145h87L501 757H412l-52 92L309 757H220ZM28 26l27 76Q127 67 189 67q129 0 129 162V693h88V217Q406 106 346.5 46.5T189 -13Q108 -13 28 26Z"
></glyph
><glyph unicode="&#x135;" horiz-adv-x="224" d="M-28 586L69 731h87L253 586H164l-52 92L61 586H-28ZM-93 -218l16 74q37 -11 61 -11q86 0 86 91V500h85V-70q0 -78 -44 -120T-9 -232q-33 0 -84 14Z"
></glyph
><glyph unicode="&#x136;" horiz-adv-x="602" d="M80 0V693h87V310L447 693H549L327 390L574 0H469L271 318L167 178V0H80ZM252 -225l26 146h87L320 -225H252Z"
></glyph
><glyph unicode="&#x137;" horiz-adv-x="493" d="M70 0V718l85 23V280L338 500H440L278 309L480 0H381L222 242L155 163V0H70ZM207 -225l25 146h88L275 -225H207Z"
></glyph
><glyph unicode="&#x139;" horiz-adv-x="488" d="M87 757l57 145h91L159 757H87ZM80 0V693l87 12V80H450V0H80Z"
></glyph
><glyph unicode="&#x13a;" horiz-adv-x="231" d="M73 760l57 145h91L145 760H73ZM70 92V717l85 24V107q0 -24 9.5 -34.5T196 62L186 -12Q70 -12 70 92Z"
></glyph
><glyph unicode="&#x13b;" horiz-adv-x="488" d="M80 0V693l87 12V80H450V0H80ZM208 -225l25 146h87L275 -225H208Z"
></glyph
><glyph unicode="&#x13c;" horiz-adv-x="231" d="M70 92V717l85 24V107q0 -24 9.5 -34.5T196 62L186 -12Q70 -12 70 92ZM67 -225L93 -79h87L135 -225H67Z"
></glyph
><glyph unicode="&#x13d;" horiz-adv-x="488" d="M80 0V693l87 12V80H450V0H80ZM295 532l27 161h87L358 522l-63 10Z"
></glyph
><glyph unicode="&#x13e;" horiz-adv-x="231" d="M70 92V717l85 24V107q0 -24 9.5 -34.5T196 62L186 -12Q70 -12 70 92ZM206 567l28 161h87L269 557l-63 10Z"
></glyph
><glyph unicode="&#x13f;" horiz-adv-x="488" d="M80 0V693l87 12V80H450V0H80ZM353 249t-24 0t-40 16.5T273 306t16 41t40 17t40.5 -17T386 306q0 -23 -16.5 -40Z"
></glyph
><glyph unicode="&#x140;" horiz-adv-x="302" d="M70 92V717l85 24V107q0 -24 9.5 -34.5T196 62L186 -12Q70 -12 70 92ZM269 249q-23 0 -39.5 17T213 306q0 24 16.5 41T269 364q24 0 40.5 -17T326 306q0 -23 -16.5 -40T269 249Z"
></glyph
><glyph unicode="&#x141;" horiz-adv-x="488" d="M80 0V261L25 242L2 304l78 28V693l87 12V364l96 34l22 -62L167 293V80H450V0H80Z"
></glyph
><glyph unicode="&#x142;" horiz-adv-x="231" d="M70 92V268L17 249L-6 312l76 26V717l85 24V369l59 22l23 -63L155 298V107q0 -24 9.5 -34.5T196 62L186 -12Q70 -12 70 92Z"
></glyph
><glyph unicode="&#x143;" horiz-adv-x="684" d="M291 757l57 145h91L363 757H291ZM80 0V678l80 15L516 157V693h88V0H522L167 534V0H80Z"
></glyph
><glyph unicode="&#x144;" d="M228 579l58 145h90L301 579H228ZM70 0V490l72 10l9 -77q53 90 168 90q75 0 120.5 -51.5T485 322V0H400V307q0 60 -25 94.5T302 436q-67 0 -107 -53.5T155 233V0H70Z"
></glyph
><glyph unicode="&#x145;" horiz-adv-x="684" d="M80 0V678l80 15L516 157V693h88V0H522L167 534V0H80ZM286 -225l25 146h88L354 -225H286Z"
></glyph
><glyph unicode="&#x146;" d="M70 0V490l72 10l9 -77q53 90 168 90q75 0 120.5 -51.5T485 322V0H400V307q0 60 -25 94.5T302 436q-67 0 -107 -53.5T155 233V0H70ZM219 -225l26 146h87L287 -225H219Z"
></glyph
><glyph unicode="&#x147;" horiz-adv-x="684" d="M298 757L201 902h89l52 -92l51 92h89L385 757H298ZM80 0V678l80 15L516 157V693h88V0H522L167 534V0H80Z"
></glyph
><glyph unicode="&#x148;" d="M231 579L134 724h89l52 -92l51 92h89L318 579H231ZM70 0V490l72 10l9 -77q53 90 168 90q75 0 120.5 -51.5T485 322V0H400V307q0 60 -25 94.5T302 436q-67 0 -107 -53.5T155 233V0H70Z"
></glyph
><glyph unicode="&#x14a;" horiz-adv-x="684" d="M80 0V678l80 15L516 157V693h88V-70q0 -78 -44 -120T441 -232q-33 0 -84 14l15 74q31 -11 60 -11q45 0 64.5 23T516 -64V9L167 534V0H80Z"
></glyph
><glyph unicode="&#x14b;" horiz-adv-x="551" d="M233 -218l16 76q35 -11 67 -11q86 0 86 89V304q0 130 -100 130q-63 0 -106 -51T153 251V0H70V493l72 7l8 -78q57 90 171 90q75 0 120 -51.5T486 320V-70q0 -78 -45 -120T321 -232q-37 0 -88 14Z"
></glyph
><glyph unicode="&#x14c;" horiz-adv-x="798" d="M266 795v72H532V795H266ZM51 195t0 150t98 255.5T399 706T649 600.5T747 345T649 91T399 -13T149 91ZM142 462t0 -117T213 147.5T399 67t186 80.5T656 345T585 544T399 626T213 544Z"
></glyph
><glyph unicode="&#x14d;" horiz-adv-x="600" d="M167 617v72H433V617H167ZM411 -13t-111 0T117.5 63.5T46 250q0 109 72 186t182 77T482 436T554 250Q554 140 482.5 63.5ZM228 64t72 0t119 53.5T466 250T419 382.5T300 436T181 382.5T134 250T181 117.5Z"
></glyph
><glyph unicode="&#x14e;" horiz-adv-x="798" d="M274 899h67q0 -71 58 -71t58 71h67q0 -62 -31.5 -100T399 761t-93.5 38T274 899ZM51 195t0 150t98 255.5T399 706T649 600.5T747 345T649 91T399 -13T149 91ZM142 462t0 -117T213 147.5T399 67t186 80.5T656 345T585 544T399 626T213 544Z"
></glyph
><glyph unicode="&#x14f;" horiz-adv-x="600" d="M175 721h67q0 -71 58 -71t58 71h67q0 -62 -31.5 -100T300 583t-93.5 38T175 721ZM411 -13t-111 0T117.5 63.5T46 250q0 109 72 186t182 77T482 436T554 250Q554 140 482.5 63.5ZM228 64t72 0t119 53.5T466 250T419 382.5T300 436T181 382.5T134 250T181 117.5Z"
></glyph
><glyph unicode="&#x150;" horiz-adv-x="798" d="M423 757l57 145h91L495 757H423ZM276 757l57 145h91L348 757H276ZM51 195t0 150t98 255.5T399 706T649 600.5T747 345T649 91T399 -13T149 91ZM142 462t0 -117T213 147.5T399 67t186 80.5T656 345T585 544T399 626T213 544Z"
></glyph
><glyph unicode="&#x151;" horiz-adv-x="600" d="M333 579l57 145h91L405 579H333ZM186 579l57 145h91L258 579H186ZM411 -13t-111 0T117.5 63.5T46 250q0 109 72 186t182 77T482 436T554 250Q554 140 482.5 63.5ZM228 64t72 0t119 53.5T466 250T419 382.5T300 436T181 382.5T134 250T181 117.5Z"
></glyph
><glyph unicode="&#x152;" horiz-adv-x="1086" d="M658 0V109Q561 -13 399 -13Q247 -13 149 91T51 345t98 255.5T399 706q162 0 259 -125V693h372V613H745V392h263L996 312H745V80h292V0H658ZM284 67t115 0t186 80.5T656 345T585 544T399 626T213 544T142 345T213 147.5Z"
></glyph
><glyph unicode="&#x153;" horiz-adv-x="969" d="M873 95L889 20Q813 -13 724 -13Q577 -13 509 104Q477 50 422.5 18.5T300 -13Q189 -13 117.5 63.5T46 250q0 109 72 186t182 77q67 0 121.5 -31.5T508 396q29 54 79.5 85.5T702 513q111 0 168.5 -76T928 242H553q3 -78 47.5 -128T725 64q68 0 148 31ZM558 306H841Q820 436 702 436q-52 0 -91.5 -32.5T558 306ZM300 64q73 0 120 53.5T467 250T420 382.5T300 436q-72 0 -119 -53.5T134 250T181 117.5T300 64Z"
></glyph
><glyph unicode="&#x154;" d="M200 757l58 145h90L273 757H200ZM80 0V693H273q106 0 167 -56T501 484q0 -74 -39.5 -126T356 286L507 0H409L267 275H167V0H80ZM167 351h92q152 0 152 133q0 129 -149 129H167V351Z"
></glyph
><glyph unicode="&#x155;" horiz-adv-x="338" d="M94 579l58 145h90L167 579H94ZM70 0V490l72 10l10 -81q56 94 172 94V436q-77 0 -123 -58T155 234V0H70Z"
></glyph
><glyph unicode="&#x156;" d="M80 0V693H273q106 0 167 -56T501 484q0 -74 -39.5 -126T356 286L507 0H409L267 275H167V0H80ZM167 351h92q152 0 152 133q0 129 -149 129H167V351ZM218 -225l26 146h87L286 -225H218Z"
></glyph
><glyph unicode="&#x157;" horiz-adv-x="338" d="M70 0V490l72 10l10 -81q56 94 172 94V436q-77 0 -123 -58T155 234V0H70ZM47 -225L73 -79h87L115 -225H47Z"
></glyph
><glyph unicode="&#x158;" d="M224 757L127 902h89l52 -92l51 92h89L311 757H224ZM80 0V693H273q106 0 167 -56T501 484q0 -74 -39.5 -126T356 286L507 0H409L267 275H167V0H80ZM167 351h92q152 0 152 133q0 129 -149 129H167V351Z"
></glyph
><glyph unicode="&#x159;" horiz-adv-x="338" d="M129 579L32 724h89l52 -92l51 92h89L216 579H129ZM70 0V490l72 10l10 -81q56 94 172 94V436q-77 0 -123 -58T155 234V0H70Z"
></glyph
><glyph unicode="&#x15a;" horiz-adv-x="509" d="M207 757l57 145h91L279 757H207ZM36 38l25 75Q160 67 233 67q60 0 98 30.5T369 177q0 37 -23 65t-57.5 44t-75 37t-75 42.5T81 426.5T58 518q0 89 61.5 138.5T265 706q80 0 169 -39L407 593q-75 33 -142 33q-55 0 -85.5 -29.5T149 518q0 -41 32 -71t77.5 -51.5t91.5 -46t78 -68T460 177Q460 92 395.5 39.5T233 -13Q140 -13 36 38Z"
></glyph
><glyph unicode="&#x15b;" horiz-adv-x="392" d="M142 579l58 145h90L215 579H142ZM34 26L57 99Q129 64 182 64q37 0 61.5 20T268 133q0 27 -22.5 46T191 212.5T127 244T72.5 293.5T50 371q0 66 47 104t112 38q62 0 132 -32L315 412q-54 24 -103 24q-35 0 -54.5 -18T138 371q0 -26 22.5 -45T215 292t64 -33t54.5 -50T356 133Q356 68 307.5 27.5T185 -13Q112 -13 34 26Z"
></glyph
><glyph unicode="&#x15c;" horiz-adv-x="509" d="M114 757l97 145h87L395 757H306l-52 92L203 757H114ZM36 38l25 75Q160 67 233 67q60 0 98 30.5T369 177q0 37 -23 65t-57.5 44t-75 37t-75 42.5T81 426.5T58 518q0 89 61.5 138.5T265 706q80 0 169 -39L407 593q-75 33 -142 33q-55 0 -85.5 -29.5T149 518q0 -41 32 -71t77.5 -51.5t91.5 -46t78 -68T460 177Q460 92 395.5 39.5T233 -13Q140 -13 36 38Z"
></glyph
><glyph unicode="&#x15d;" horiz-adv-x="392" d="M55 579l97 145h87L336 579H247l-52 92L144 579H55ZM34 26L57 99Q129 64 182 64q37 0 61.5 20T268 133q0 27 -22.5 46T191 212.5T127 244T72.5 293.5T50 371q0 66 47 104t112 38q62 0 132 -32L315 412q-54 24 -103 24q-35 0 -54.5 -18T138 371q0 -26 22.5 -45T215 292t64 -33t54.5 -50T356 133Q356 68 307.5 27.5T185 -13Q112 -13 34 26Z"
></glyph
><glyph unicode="&#x15e;" horiz-adv-x="509" d="M165 -214l13 55q31 -13 64 -13q46 0 46 34q0 31 -46 31q-20 0 -53 -5l16 100Q119 -4 36 38l25 75Q160 67 233 67q60 0 98 30.5T369 177q0 37 -23 65t-57.5 44t-75 37t-75 42.5T81 426.5T58 518q0 89 61.5 138.5T265 706q80 0 169 -39L407 593q-75 33 -142 33q-55 0 -85.5 -29.5T149 518q0 -41 32 -71t77.5 -51.5t91.5 -46t78 -68T460 177Q460 99 406 48T267 -11l-7 -48q91 -2 91 -80q0 -39 -28 -65.5T243 -231q-41 0 -78 17Z"
></glyph
><glyph unicode="&#x15f;" horiz-adv-x="392" d="M112 -214l13 55q31 -13 64 -13q46 0 46 34q0 31 -46 31q-20 0 -53 -5l16 101Q89 -3 34 26L57 99Q129 64 182 64q37 0 61.5 20T268 133q0 27 -22.5 46T191 212.5T127 244T72.5 293.5T50 371q0 66 47 104t112 38q62 0 132 -32L315 412q-54 24 -103 24q-35 0 -54.5 -18T138 371q0 -26 22.5 -45T215 292t64 -33t54.5 -50T356 133Q356 75 316.5 36T214 -11l-7 -48q91 -2 91 -80q0 -39 -28 -65.5T190 -231q-41 0 -78 17Z"
></glyph
><glyph unicode="&#x160;" horiz-adv-x="509" d="M211 757L114 902h89l52 -92l51 92h89L298 757H211ZM36 38l25 75Q160 67 233 67q60 0 98 30.5T369 177q0 37 -23 65t-57.5 44t-75 37t-75 42.5T81 426.5T58 518q0 89 61.5 138.5T265 706q80 0 169 -39L407 593q-75 33 -142 33q-55 0 -85.5 -29.5T149 518q0 -41 32 -71t77.5 -51.5t91.5 -46t78 -68T460 177Q460 92 395.5 39.5T233 -13Q140 -13 36 38Z"
></glyph
><glyph unicode="&#x161;" horiz-adv-x="392" d="M157 579L60 724h89l52 -92l51 92h89L244 579H157ZM34 26L57 99Q129 64 182 64q37 0 61.5 20T268 133q0 27 -22.5 46T191 212.5T127 244T72.5 293.5T50 371q0 66 47 104t112 38q62 0 132 -32L315 412q-54 24 -103 24q-35 0 -54.5 -18T138 371q0 -26 22.5 -45T215 292t64 -33t54.5 -50T356 133Q356 68 307.5 27.5T185 -13Q112 -13 34 26Z"
></glyph
><glyph unicode="&#x162;" horiz-adv-x="544" d="M228 0V613H33v80H511V613H316V0H228ZM204 -225l25 146h88L272 -225H204Z"
></glyph
><glyph unicode="&#x163;" horiz-adv-x="347" d="M88 145V437H19v63H88V621l85 26V500H292V437H173V152q0 -88 77 -88q32 0 63 11L329 0Q284 -13 245 -13q-71 0 -114 40T88 145ZM160 -225l25 146h87L227 -225H160Z"
></glyph
><glyph unicode="&#x164;" horiz-adv-x="544" d="M228 757L131 902h89l52 -92l51 92h89L315 757H228ZM228 0V613H33v80H511V613H316V0H228Z"
></glyph
><glyph unicode="&#x165;" horiz-adv-x="347" d="M248 592l27 161h88L311 582l-63 10ZM88 145V437H19v63H88V621l85 26V500H292V437H173V152q0 -88 77 -88q32 0 63 11L329 0Q284 -13 245 -13q-71 0 -114 40T88 145Z"
></glyph
><glyph unicode="&#x166;" horiz-adv-x="544" d="M228 0V304H112v67H228V613H33v80H511V613H316V371H431V304H316V0H228Z"
></glyph
><glyph unicode="&#x167;" horiz-adv-x="347" d="M88 145v98H19v66H88V437H19v63H88V621l85 26V500H292V437H173V309H293V243H173V152q0 -88 77 -88q32 0 63 11L329 0Q284 -13 245 -13q-71 0 -114 40T88 145Z"
></glyph
><glyph unicode="&#x168;" horiz-adv-x="658" d="M224 787l-37 52q21 26 39.5 38T273 889q26 0 61.5 -20T383 849q25 0 50 30l37 -53Q449 800 430.5 788.5T384 777q-25 0 -61 20t-49 20q-24 0 -50 -30ZM65 251V693h87V262q0 -89 45.5 -142T329 67q85 0 130.5 53.5T505 263V693h88V251Q593 137 520 62T329 -13Q210 -13 137.5 61.5T65 251Z"
></glyph
><glyph unicode="&#x169;" d="M168 609l-37 52q21 26 39.5 38T217 711q26 0 61.5 -20T327 671q25 0 50 30l37 -53Q393 622 374.5 610.5T328 599q-25 0 -61 20t-49 20q-24 0 -50 -30ZM65 178V500h85V193q0 -60 24.5 -94.5T247 64q67 0 107.5 53.5T395 267V500h85V0H408L398 76Q345 -13 231 -13q-75 0 -120.5 51.5T65 178Z"
></glyph
><glyph unicode="&#x16a;" horiz-adv-x="658" d="M195 795v72H461V795H195ZM65 251V693h87V262q0 -89 45.5 -142T329 67q85 0 130.5 53.5T505 263V693h88V251Q593 137 520 62T329 -13Q210 -13 137.5 61.5T65 251Z"
></glyph
><glyph unicode="&#x16b;" d="M139 617v72H405V617H139ZM65 178V500h85V193q0 -60 24.5 -94.5T247 64q67 0 107.5 53.5T395 267V500h85V0H408L398 76Q345 -13 231 -13q-75 0 -120.5 51.5T65 178Z"
></glyph
><glyph unicode="&#x16c;" horiz-adv-x="658" d="M203 899h67q0 -71 58 -71t58 71h68q0 -62 -32 -100T328 761q-61 0 -93 38.5T203 899ZM65 251V693h87V262q0 -89 45.5 -142T329 67q85 0 130.5 53.5T505 263V693h88V251Q593 137 520 62T329 -13Q210 -13 137.5 61.5T65 251Z"
></glyph
><glyph unicode="&#x16d;" d="M147 721h67q0 -71 58 -71t58 71h68q0 -62 -32 -100T272 583q-61 0 -93 38.5T147 721ZM65 178V500h85V193q0 -60 24.5 -94.5T247 64q67 0 107.5 53.5T395 267V500h85V0H408L398 76Q345 -13 231 -13q-75 0 -120.5 51.5T65 178Z"
></glyph
><glyph unicode="&#x16e;" horiz-adv-x="658" d="M232 837q0 39 28 66.5T328 931t68.5 -27.5T425 837q0 -40 -28 -67.5T328 742q-40 0 -68 27.5T232 837ZM297 836q0 -12 9 -21.5T328 805q12 0 21.5 9t9.5 22q0 12 -9 22t-21 10q-13 0 -22.5 -9T297 836ZM65 251V693h87V262q0 -89 45.5 -142T329 67q85 0 130.5 53.5T505 263V693h88V251Q593 137 520 62T329 -13Q210 -13 137.5 61.5T65 251Z"
></glyph
><glyph unicode="&#x16f;" d="M176 659q0 39 28.5 66.5T273 753t68 -27.5T369 659q0 -40 -28 -67.5T273 564t-68.5 27.5T176 659ZM242 658q0 -12 9 -21.5T273 627q12 0 21.5 9t9.5 22q0 12 -9 22t-21 10q-13 0 -22.5 -9T242 658ZM65 178V500h85V193q0 -60 24.5 -94.5T247 64q67 0 107.5 53.5T395 267V500h85V0H408L398 76Q345 -13 231 -13q-75 0 -120.5 51.5T65 178Z"
></glyph
><glyph unicode="&#x170;" horiz-adv-x="658" d="M353 757l57 145h91L425 757H353ZM206 757l57 145h91L278 757H206ZM65 251V693h87V262q0 -89 45.5 -142T329 67q85 0 130.5 53.5T505 263V693h88V251Q593 137 520 62T329 -13Q210 -13 137.5 61.5T65 251Z"
></glyph
><glyph unicode="&#x171;" d="M300 579l57 145h91L372 579H300ZM152 579l58 145h90L225 579H152ZM65 178V500h85V193q0 -60 24.5 -94.5T247 64q67 0 107.5 53.5T395 267V500h85V0H408L398 76Q345 -13 231 -13q-75 0 -120.5 51.5T65 178Z"
></glyph
><glyph unicode="&#x172;" horiz-adv-x="658" d="M380 -161l7 -60q-26 -11 -59 -11q-41 0 -68 25t-27 68q0 64 67 128Q193 -2 129 70.5T65 251V693h87V262q0 -89 45.5 -142T329 67q85 0 130.5 53.5T505 263V693h88V251Q593 150 534.5 78.5T378 -9Q302 -71 302 -129q0 -41 35 -41q22 0 43 9Z"
></glyph
><glyph unicode="&#x173;" d="M471 -161l6 -60q-26 -11 -59 -11q-41 0 -68 25t-27 68q0 73 84 142l-9 73Q345 -13 231 -13q-75 0 -120.5 51.5T65 178V500h85V193q0 -60 24.5 -94.5T247 64q67 0 107.5 53.5T395 267V500h85V0Q392 -67 392 -129q0 -41 35 -41q21 0 44 9Z"
></glyph
><glyph unicode="&#x174;" horiz-adv-x="873" d="M296 757l97 145h87L577 757H488l-52 92L385 757H296ZM182 0L36 693h89L219 232q8 -39 20 -127q21 77 38 128L387 561h99L596 233q16 -47 38 -129q12 88 20 128l94 461h89L691 0H589L470 351q-15 43 -34 111Q423 410 403 351L284 0H182Z"
></glyph
><glyph unicode="&#x175;" horiz-adv-x="737" d="M228 579l97 145h87L509 579H420l-52 92L317 579H228ZM163 0L23 500h87L189 210Q201 168 216 92q4 14 13.5 56.5T244 209l79 291h91L493 209q7 -26 28 -117q13 67 27 118l79 290h87L573 0H476L396 294q-14 51 -28 115Q359 363 341 294L260 0H163Z"
></glyph
><glyph unicode="&#x176;" horiz-adv-x="604" d="M162 757l97 145h87L443 757H354l-52 92L251 757H162ZM256 0V285L28 693h98L302 372L479 693h97L346 285V0H256Z"
></glyph
><glyph unicode="&#x177;" horiz-adv-x="489" d="M104 579l97 145h87L385 579H296l-52 92L193 579H104ZM39 -137q39 -18 73 -18q50 0 73 69L213 0H198L21 500h90L216 189q3 -8 32 -109q14 59 31 110l99 310h89L260 -121q-18 -54 -56 -82.5T118 -232q-56 0 -104 24l25 71Z"
></glyph
><glyph unicode="&#x178;" horiz-adv-x="604" d="M390 773q-22 0 -38 16.5T336 828q0 23 16 39.5T390 884q23 0 39 -16.5T445 828T429 789T390 773ZM159 828q0 23 16 39.5T214 884t39 -16.5T269 828q0 -22 -16.5 -38.5T214 773q-23 0 -39 16.5T159 828ZM256 0V285L28 693h98L302 372L479 693h97L346 285V0H256Z"
></glyph
><glyph unicode="&#x179;" horiz-adv-x="546" d="M206 757l57 145h91L278 757H206ZM45 0V60L376 613H53v80H488V633L158 80H501V0H45Z"
></glyph
><glyph unicode="&#x17a;" horiz-adv-x="437" d="M171 579l57 145h91L243 579H171ZM41 0V51L274 423H54v77H387V449L154 77H396V0H41Z"
></glyph
><glyph unicode="&#x17b;" horiz-adv-x="546" d="M294 773t-22 0t-38 16.5T218 828q0 23 16 39.5T272 884q23 0 39 -16.5T327 828q0 -22 -16.5 -38.5ZM45 0V60L376 613H53v80H488V633L158 80H501V0H45Z"
></glyph
><glyph unicode="&#x17c;" horiz-adv-x="437" d="M218 595q-22 0 -38 16.5T164 650q0 23 16 39.5T218 706q23 0 39 -16.5T273 650T257 611T218 595ZM41 0V51L274 423H54v77H387V449L154 77H396V0H41Z"
></glyph
><glyph unicode="&#x17d;" horiz-adv-x="546" d="M229 757L132 902h89l52 -92l51 92h89L316 757H229ZM45 0V60L376 613H53v80H488V633L158 80H501V0H45Z"
></glyph
><glyph unicode="&#x17e;" horiz-adv-x="437" d="M175 579L78 724h89l52 -92l51 92h89L262 579H175ZM41 0V51L274 423H54v77H387V449L154 77H396V0H41Z"
></glyph
><glyph unicode="&#x192;" horiz-adv-x="474" d="M-60 -218l11 77q36 -11 70 -11q82 0 93 88l52 440H81l8 66h85l17 132q10 79 58.5 122.5T373 740q45 0 85 -13L438 651q-42 11 -69 11q-83 0 -94 -89L259 442H387l-8 -66H251L197 -65q-10 -80 -54.5 -123T25 -231q-39 0 -85 13Z"
></glyph
><glyph unicode="&#x218;" horiz-adv-x="509" d="M186 -225l26 146h87L254 -225H186ZM36 38l25 75Q160 67 233 67q60 0 98 30.5T369 177q0 37 -23 65t-57.5 44t-75 37t-75 42.5T81 426.5T58 518q0 89 61.5 138.5T265 706q80 0 169 -39L407 593q-75 33 -142 33q-55 0 -85.5 -29.5T149 518q0 -41 32 -71t77.5 -51.5t91.5 -46t78 -68T460 177Q460 92 395.5 39.5T233 -13Q140 -13 36 38Z"
></glyph
><glyph unicode="&#x219;" horiz-adv-x="392" d="M34 26L57 99Q129 64 182 64q37 0 61.5 20T268 133q0 27 -22.5 46T191 212.5T127 244T72.5 293.5T50 371q0 66 47 104t112 38q62 0 132 -32L315 412q-54 24 -103 24q-35 0 -54.5 -18T138 371q0 -26 22.5 -45T215 292t64 -33t54.5 -50T356 133Q356 68 307.5 27.5T185 -13Q112 -13 34 26ZM133 -225l25 146h87L200 -225H133Z"
></glyph
><glyph unicode="&#x2c6;" horiz-adv-x="386" d="M53 579l97 145h87L334 579H245l-52 92L142 579H53Z"
></glyph
><glyph unicode="&#x2c7;" horiz-adv-x="386" d="M150 579L53 724h89l52 -92l51 92h89L237 579H150Z"
></glyph
><glyph unicode="&#x2d8;" horiz-adv-x="349" d="M49 721h68q0 -71 58 -71t58 71h67q0 -61 -32 -99.5T175 583q-62 0 -94 38T49 721Z"
></glyph
><glyph unicode="&#x2d9;" horiz-adv-x="242" d="M120 595q-22 0 -38 16.5T66 650q0 23 16 39.5T120 706q23 0 39.5 -16.5T176 650T159.5 611T120 595Z"
></glyph
><glyph unicode="&#x2da;" horiz-adv-x="322" d="M64 659q0 39 28.5 66.5T161 753t68 -27.5T257 659q0 -40 -28 -67.5T161 564T92.5 591.5T64 659ZM130 658q0 -12 9 -21.5T161 627q12 0 21.5 9t9.5 22q0 12 -9 22t-21 10q-13 0 -22.5 -9T130 658Z"
></glyph
><glyph unicode="&#x2db;" horiz-adv-x="295" d="M222 -161l7 -60q-26 -11 -59 -11q-41 0 -68 25t-27 68q0 69 80 139h77Q144 -67 144 -129q0 -41 35 -41q22 0 43 9Z"
></glyph
><glyph unicode="&#x2dc;" horiz-adv-x="373" d="M82 609L45 661q21 26 39.5 38T131 711q26 0 62 -20t48 -20q25 0 50 30l37 -53Q307 622 288.5 610.5T242 599q-25 0 -61 20t-49 20q-24 0 -50 -30Z"
></glyph
><glyph unicode="&#x2dd;" horiz-adv-x="394" d="M197 579l57 145h91L269 579H197ZM49 579l58 145h90L122 579H49Z"
></glyph
><glyph unicode="&#x3a9;" horiz-adv-x="799" d="M51 0V75H194Q127 119 89 193T51 359q0 156 98 264.5T399 732T649.5 623.5T748 359q0 -92 -38 -166T604 75H748V0H469V75q87 25 138.5 104T659 359q0 122 -73 210T399 657T212.5 569T140 359q0 -101 51 -180T328 75V0H51Z"
></glyph
><glyph unicode="&#x3c0;" horiz-adv-x="679" d="M142 0V423H42v77H637V423H535V107q0 -24 9 -34.5T575 62l-6 -74Q450 -12 450 97V423H227V0H142Z"
></glyph
><glyph unicode="&#x1e80;" horiz-adv-x="873" d="M403 757L328 902h90L476 757H403ZM182 0L36 693h89L219 232q8 -39 20 -127q21 77 38 128L387 561h99L596 233q16 -47 38 -129q12 88 20 128l94 461h89L691 0H589L470 351q-15 43 -34 111Q423 410 403 351L284 0H182Z"
></glyph
><glyph unicode="&#x1e81;" horiz-adv-x="737" d="M329 579L253 724h91L401 579H329ZM163 0L23 500h87L189 210Q201 168 216 92q4 14 13.5 56.5T244 209l79 291h91L493 209q7 -26 28 -117q13 67 27 118l79 290h87L573 0H476L396 294q-14 51 -28 115Q359 363 341 294L260 0H163Z"
></glyph
><glyph unicode="&#x1e82;" horiz-adv-x="873" d="M391 757l57 145h91L463 757H391ZM182 0L36 693h89L219 232q8 -39 20 -127q21 77 38 128L387 561h99L596 233q16 -47 38 -129q12 88 20 128l94 461h89L691 0H589L470 351q-15 43 -34 111Q423 410 403 351L284 0H182Z"
></glyph
><glyph unicode="&#x1e83;" horiz-adv-x="737" d="M330 579l57 145h91L402 579H330ZM163 0L23 500h87L189 210Q201 168 216 92q4 14 13.5 56.5T244 209l79 291h91L493 209q7 -26 28 -117q13 67 27 118l79 290h87L573 0H476L396 294q-14 51 -28 115Q359 363 341 294L260 0H163Z"
></glyph
><glyph unicode="&#x1e84;" horiz-adv-x="873" d="M524 773q-22 0 -38 16.5T470 828q0 23 16 39.5T524 884q23 0 39 -16.5T579 828T563 789T524 773ZM293 828q0 23 16 39.5T348 884t39 -16.5T403 828q0 -22 -16.5 -38.5T348 773q-23 0 -39 16.5T293 828ZM182 0L36 693h89L219 232q8 -39 20 -127q21 77 38 128L387 561h99L596 233q16 -47 38 -129q12 88 20 128l94 461h89L691 0H589L470 351q-15 43 -34 111Q423 410 403 351L284 0H182Z"
></glyph
><glyph unicode="&#x1e85;" horiz-adv-x="737" d="M456 595q-22 0 -38 16.5T402 650q0 23 16 39.5T456 706q23 0 39 -16.5T511 650T495 611T456 595ZM225 650q0 23 16 39.5T280 706t39 -16.5T335 650q0 -22 -16.5 -38.5T280 595q-23 0 -39 16.5T225 650ZM163 0L23 500h87L189 210Q201 168 216 92q4 14 13.5 56.5T244 209l79 291h91L493 209q7 -26 28 -117q13 67 27 118l79 290h87L573 0H476L396 294q-14 51 -28 115Q359 363 341 294L260 0H163Z"
></glyph
><glyph unicode="&#x1ef2;" horiz-adv-x="604" d="M279 757L204 902h90L352 757H279ZM256 0V285L28 693h98L302 372L479 693h97L346 285V0H256Z"
></glyph
><glyph unicode="&#x1ef3;" horiz-adv-x="489" d="M216 579L141 724h90L289 579H216ZM39 -137q39 -18 73 -18q50 0 73 69L213 0H198L21 500h90L216 189q3 -8 32 -109q14 59 31 110l99 310h89L260 -121q-18 -54 -56 -82.5T118 -232q-56 0 -104 24l25 71Z"
></glyph
><glyph unicode="&#x2013;" horiz-adv-x="500" d="M0 240v79H500V240H0Z"
></glyph
><glyph unicode="&#x2014;" horiz-adv-x="1000" d="M0 240v79H1001V240H0Z"
></glyph
><glyph unicode="&#x2018;" horiz-adv-x="243" d="M75 494l68 236l53 -9L156 480L75 494Z"
></glyph
><glyph unicode="&#x2019;" horiz-adv-x="243" d="M76 489l40 241l81 -14L130 480l-54 9Z"
></glyph
><glyph unicode="&#x201a;" horiz-adv-x="233" d="M55 -134L95 107L176 93L108 -143l-53 9Z"
></glyph
><glyph unicode="&#x201c;" horiz-adv-x="390" d="M210 494l67 236l54 -9L291 480l-81 14ZM67 494l67 236l54 -9L148 480L67 494Z"
></glyph
><glyph unicode="&#x201d;" horiz-adv-x="390" d="M218 489l40 241l81 -14L271 480l-53 9ZM74 489l40 241l81 -14L128 480l-54 9Z"
></glyph
><glyph unicode="&#x201e;" horiz-adv-x="370" d="M198 -134l40 241L319 93L252 -143l-54 9ZM55 -134L95 107L176 93L108 -143l-53 9Z"
></glyph
><glyph unicode="&#x2020;" horiz-adv-x="506" d="M209 0V440H85v74H209V673h87V514H422V440H296V0H209Z"
></glyph
><glyph unicode="&#x2021;" horiz-adv-x="506" d="M209 0V140H84v74H209V459H84v74H209V673h87V533H422V459H296V214H422V140H296V0H209Z"
></glyph
><glyph unicode="&#x2022;" horiz-adv-x="480" d="M80 288q0 66 46.5 113T240 448q66 0 113 -47T400 288q0 -67 -47 -114T240 127q-67 0 -113.5 47T80 288Z"
></glyph
><glyph unicode="&#x2026;" horiz-adv-x="836" d="M657 48q0 25 17.5 42T717 107q24 0 41.5 -17T776 48Q776 24 758.5 6T717 -12q-25 0 -42.5 18T657 48ZM373 24t0 24t18 41.5T433 107q25 0 42.5 -17T493 48Q493 24 475.5 6T433 -12q-24 0 -42 18ZM68 48q0 25 17.5 42T128 107q24 0 41.5 -17T187 48Q187 24 169.5 6T128 -12Q103 -12 85.5 6T68 48Z"
></glyph
><glyph unicode="&#x2030;" horiz-adv-x="1356" d="M306 325t-78 0T99.5 379.5T49 511T99.5 642.5T228 697T356.5 642.5T407 511T356.5 379.5ZM294 0L567 684h73L367 0H294ZM228 389q47 0 77 35.5T335 511t-30 86.5T228 633T151 597.5T121 511t29.5 -86.5T228 389ZM1206 -13t-78 0T999.5 41.5T949 173t50.5 131.5T1128 359q79 0 129 -54t50 -132q0 -77 -50.5 -131.5ZM789 -13t-78 0T582.5 41.5T532 173t50.5 131.5T711 359T839.5 304.5T890 173T839.5 41.5ZM1128 51q48 0 77.5 35.5T1235 173t-29.5 86.5T1128 295q-47 0 -77 -35.5T1021 173t30 -86.5T1128 51ZM711 51q48 0 77.5 35.5T818 173t-30 86.5T711 295T634 259.5T604 173T634 86.5T711 51Z"
></glyph
><glyph unicode="&#x2039;" horiz-adv-x="331" d="M198 64L63 258L198 452l70 -48L165 258L268 111L198 64Z"
></glyph
><glyph unicode="&#x203a;" horiz-adv-x="330" d="M63 111L165 257L63 404l69 47L267 257L132 63L63 111Z"
></glyph
><glyph unicode="&#x20ac;" horiz-adv-x="575" d="M59 225v62h41q-2 19 -2 59q0 41 3 61H59v62h52q27 109 100 173t180 64q81 0 148 -22L517 608q-57 18 -122 18q-76 0 -124.5 -41.5T202 469H471L452 407H190q-3 -30 -3 -61q0 -30 3 -59H421L402 225H202Q244 67 395 67q65 0 122 18L539 9Q472 -13 391 -13Q284 -13 211 51T111 225H59Z"
></glyph
><glyph unicode="&#x2122;" horiz-adv-x="784" d="M331 365l48 328h71L529 432l80 261h71L728 365H664L635 594L561 365H498L424 594L395 365H331ZM143 364V634H47v59H302V634H206V364H143Z"
></glyph
><glyph unicode="&#x2206;" horiz-adv-x="658" d="M-3 0L265 730H393L661 0H-3ZM111 69H546L329 661L111 69Z"
></glyph
><glyph unicode="&#x220f;" horiz-adv-x="729" d="M142 -100V611H42v82H687V611H587V-100H500V611H229V-100H142Z"
></glyph
><glyph unicode="&#x2211;" horiz-adv-x="595" d="M42 -100v82L306 296L42 611v82H553V611H155L419 296L155 -18H553v-82H42Z"
></glyph
><glyph unicode="&#x221a;" horiz-adv-x="545" d="M182 0L-3 500H86L231 85L458 730h90L279 0H182Z"
></glyph
><glyph unicode="&#x222b;" horiz-adv-x="359" d="M-38 -219l16 75q29 -10 61 -10q42 0 59 21t17 66V581q0 79 39.5 119.5T269 741q44 0 84 -13L337 654q-30 10 -62 10q-42 0 -58.5 -21T200 576V-71q0 -79 -40 -120T46 -232q-40 0 -84 13Z"
></glyph
><glyph unicode="&#x2248;" horiz-adv-x="561" d="M165 360H83q0 66 31.5 104T203 502q29 0 58 -19.5t52.5 -39T354 424q42 0 42 66h82q0 -66 -31.5 -104T358 348q-30 0 -58.5 19.5t-52 39T207 426q-42 0 -42 -66ZM165 154H83q0 66 31.5 104T203 296q29 0 58 -19.5t52.5 -39T354 218q42 0 42 66h82q0 -66 -31.5 -104T358 142q-30 0 -58.5 19.5t-52 39T207 220q-42 0 -42 -66Z"
></glyph
><glyph unicode="&#x2260;" horiz-adv-x="616" d="M176 14l34 93H81v81H239l51 139H81v82H320l44 120l76 -28L406 409H535V327H376L325 188H535V107H295L252 -14L176 14Z"
></glyph
><glyph unicode="&#x2264;" horiz-adv-x="607" d="M109 225v89L505 468V379L217 269L505 160V71L109 225ZM109 -88V-9H505V-88H109Z"
></glyph
><glyph unicode="&#x2265;" horiz-adv-x="607" d="M109 71v89L396 269L109 379v89L505 314V225L109 71ZM109 -88V-9H505V-88H109Z"
></glyph
><glyph unicode="&#x25ca;" horiz-adv-x="533" d="M204 1L48 316L203 631H331L485 316L331 1H204ZM267 52L395 316L267 580L137 316L267 52Z"
></glyph
><glyph unicode="&#xf8ff;" horiz-adv-x="0" d=""
></glyph
><glyph unicode="&#xfb00;" horiz-adv-x="620" d="M94 0V437H12v63H94v80q0 78 44 119.5T258 741q40 0 84 -13L326 653q-33 11 -63 11q-45 0 -64.5 -21.5T179 576V500H402v80q0 78 44 119.5T566 741q40 0 84 -13L634 653q-33 11 -63 11q-45 0 -64.5 -21.5T487 576V500H612V437H487V0H402V437H179V0H94Z"
></glyph
><glyph unicode="&#xfb01;" horiz-adv-x="537" d="M94 0V437H12v63H94v70q0 171 182 171q64 0 137 -21L399 648q-69 16 -115 16q-59 0 -82 -23T179 566V500H467V0H382V437H179V0H94Z"
></glyph
><glyph unicode="&#xfb02;" horiz-adv-x="543" d="M94 0V437H12v63H94v70q0 171 181 171q55 0 107 -13h85V107q0 -24 9.5 -34.5T508 62L498 -12Q382 -12 382 92V651q-55 13 -99 13q-58 0 -81 -23T179 566V500H304V437H179V0H94Z"
></glyph
><glyph unicode="&#xfb03;" horiz-adv-x="845" d="M94 0V437H12v63H94v80q0 78 44 119.5T258 741q40 0 84 -13L326 653q-33 11 -63 11q-45 0 -64.5 -21.5T179 576V500H402v70q0 171 182 171q64 0 137 -21L707 648q-69 16 -115 16q-59 0 -82 -23T487 566V500H775V0H690V437H487V0H402V437H179V0H94Z"
></glyph
><glyph unicode="&#xfb04;" horiz-adv-x="851" d="M94 0V437H12v63H94v80q0 78 44 119.5T258 741q40 0 84 -13L326 653q-33 11 -63 11q-45 0 -64.5 -21.5T179 576V500H402v70q0 171 181 171q55 0 107 -13h85V107q0 -24 9.5 -34.5T816 62L806 -12Q690 -12 690 92V651q-55 13 -99 13q-58 0 -81 -23T487 566V500H612V437H487V0H402V437H179V0H94Z"
></glyph
></font
></defs
><g style="font-family: &quot;FaricyNew-Regular&quot;; font-size:50;fill:black"
><text x="20" y="50"
>!&quot;#$%&amp;&#39;()*+,-./0123456789:;&#229;&lt;&gt;?</text
><text x="20" y="100"
>@ABCDEFGHIJKLMNOPQRSTUVWXYZ[\]^_</text
><text x="20" y="150"
>` abcdefghijklmnopqrstuvwxyz|{}~</text
></g
></svg
>